<?xml version="1.0" encoding="utf-8"?>
<!-- Generator: Adobe Illustrator 21.0.0, SVG Export Plug-In . SVG Version: 6.00 Build 0)  -->
<svg version="1.1" id="Layer_1" xmlns="http://www.w3.org/2000/svg" xmlns:xlink="http://www.w3.org/1999/xlink" x="0px" y="0px"
	 viewBox="0 0 750 500" style="enable-background:new 0 0 750 500;" xml:space="preserve">
<style type="text/css">
	.st0{opacity:4.000000e-02;}
	.st1{fill:#FAFBFC;stroke:#192657;stroke-width:3;stroke-miterlimit:10;}
	.st2{fill:#192657;}
	.st3{fill:#192657;stroke:#192657;stroke-width:0.75;stroke-miterlimit:10;}
	.st4{fill:none;stroke:#192657;stroke-width:3;stroke-miterlimit:10;}
	.st5{fill:#FAFBFC;stroke:#192657;stroke-width:3;stroke-linecap:round;stroke-linejoin:round;}
	.st6{fill:none;stroke:#192657;stroke-width:3;stroke-linecap:round;stroke-linejoin:round;}
	.st7{fill:#FFFFFF;}
	.st8{fill:#192657;stroke:#192657;stroke-miterlimit:10;}
	.st9{fill:#192657;stroke:#192657;stroke-width:0.25;stroke-miterlimit:10;}
	.st10{fill:#EDF0F0;}
	.st11{fill:#404550;}
	.st12{fill:#F3F2EE;}
	.st13{font-family:'Arial-BoldMT';}
	.st14{font-size:18.04px;}
	.st15{fill:none;stroke:#192657;stroke-width:0.75;stroke-miterlimit:10;}
	.st16{font-size:15.7746px;}
	.st17{fill:#FFFFFF;stroke:#192657;stroke-width:3;stroke-linecap:round;stroke-linejoin:round;}
	.st18{fill:#FFFFFF;stroke:#192657;stroke-width:3;stroke-miterlimit:10;}
	.st19{fill:#FFFFFF;stroke:#192657;stroke-width:2;stroke-miterlimit:10;}
	.st20{opacity:0.39;fill:#192657;enable-background:new    ;}
	.st21{fill:#F7FAFA;}
	.st22{fill:#FAFBFC;}
</style>
<title>all-users</title>
<g id="BACKGROUND_1" class="st0">
	<path class="st1" d="M405.5,171.4c5.5-8.7,2.9-20.1-5.8-25.6c-8.7-5.5-20.1-2.9-25.6,5.8s-2.9,20.1,5.8,25.6
		c5.5,3.5,12.4,3.8,18.2,0.9c3.7,2.9,8.9,2.6,12.2-0.7c0.2-0.2,0.4-0.4,0.5-0.6L405.5,171.4z"/>
	<path class="st1" d="M367.8,155.1c-10.2,0-18.5,8.2-18.5,18.4c0,3.5,1,6.9,2.9,9.9l-5.4,5.4c0.2,0.2,0.3,0.4,0.5,0.6
		c3.3,3.3,8.5,3.6,12.2,0.7c9.1,4.6,20.2,0.8,24.8-8.3c4.6-9.1,0.8-20.2-8.3-24.8C373.5,155.8,370.7,155.1,367.8,155.1L367.8,155.1z
		"/>
	<circle class="st2" cx="359.6" cy="174.3" r="2.1"/>
	<circle class="st2" cx="367.8" cy="174.3" r="2.1"/>
	<circle class="st2" cx="376" cy="174.3" r="2.1"/>
	<circle class="st2" cx="382.8" cy="161.6" r="1.7"/>
	<circle class="st2" cx="389.3" cy="161.6" r="1.7"/>
	<circle class="st2" cx="395.8" cy="161.6" r="1.7"/>
	<path class="st1" d="M477.2,32.1c5.5-8.7,2.9-20.1-5.8-25.6c-8.7-5.5-20.1-2.9-25.6,5.8s-2.9,20.1,5.8,25.6
		c5.5,3.5,12.4,3.8,18.2,0.9c3.7,2.9,8.9,2.5,12.2-0.8c0.2-0.2,0.4-0.4,0.5-0.6L477.2,32.1z"/>
	<path class="st1" d="M439.6,15.8c-10.2,0-18.5,8.2-18.5,18.4c0,3.5,1,6.9,2.9,9.9l-5.4,5.4c0.2,0.2,0.3,0.4,0.5,0.6
		c3.3,3.3,8.5,3.6,12.2,0.7c9.1,4.6,20.2,0.8,24.8-8.3s0.8-20.2-8.3-24.8C445.2,16.5,442.4,15.8,439.6,15.8L439.6,15.8z"/>
	<circle class="st2" cx="431.4" cy="35" r="2.1"/>
	<circle class="st2" cx="439.6" cy="35" r="2.1"/>
	<circle class="st2" cx="447.8" cy="35" r="2.1"/>
	<circle class="st2" cx="454.5" cy="22.3" r="1.7"/>
	<circle class="st2" cx="461" cy="22.3" r="1.7"/>
	<circle class="st2" cx="467.5" cy="22.3" r="1.7"/>
	<path class="st1" d="M236.2,73.4c-7.4,0-13.4,5.9-13.4,13.3c0,2.6,0.7,5.1,2.1,7.2l-3.9,3.8c0.1,0.1,0.2,0.3,0.4,0.4
		c2.4,2.4,6.2,2.6,8.9,0.5c6.6,3.3,14.6,0.6,17.9-6c3.3-6.6,0.6-14.6-6-17.9C240.3,73.9,238.3,73.4,236.2,73.4L236.2,73.4z"/>
	<path class="st1" d="M215.4,64.8c7.4,0,13.4,6,13.4,13.3c0,2.5-0.7,5-2.1,7.2l3.9,3.9c-0.1,0.1-0.2,0.3-0.4,0.4
		c-2.4,2.4-6.2,2.6-8.9,0.5c-6.6,3.3-14.6,0.6-17.9-6c-3.3-6.6-0.6-14.6,6-17.9C211.3,65.3,213.3,64.8,215.4,64.8L215.4,64.8z"/>
	<path class="st1" d="M450.5,341.8c0,9.3-7.6,16.9-16.9,16.9s-16.9-7.6-16.9-16.9l0,0c0-9.3,7.6-24.3,16.9-24.3
		S450.5,332.5,450.5,341.8z"/>
	<path class="st1" d="M442.9,316.7l1.8-8.7c0.3-1.2-0.4-2.5-1.6-2.8c-0.4-0.1-0.8-0.1-1.2,0l-5.9,1.9c-1.5,0.5-3.2,0.5-4.7,0
		l-6.1-1.9c-1.2-0.3-2.5,0.5-2.7,1.7c-0.1,0.4-0.1,0.8,0,1.2l1.8,8.8"/>
	<path class="st1" d="M442,322.6h-16.7c-1.6,0-2.9-1.3-2.9-2.9l0,0c0-1.6,1.3-2.9,2.9-2.9H442c1.6,0,2.9,1.3,2.9,2.9l0,0
		C444.9,321.3,443.6,322.6,442,322.6z"/>
	<path class="st3" d="M433,349.2v-2c-1.1,0-2.1-0.3-3.1-0.9l0.5-1.3c0.9,0.6,1.9,0.9,2.9,0.9c1.4,0,2.4-0.8,2.4-2s-0.8-1.8-2.3-2.4
		c-2-0.8-3.3-1.7-3.3-3.5c0-1.7,1.3-3.1,3-3.2v-2h1.2v1.9c0.9,0,1.8,0.2,2.6,0.7l-0.5,1.3c-0.7-0.5-1.6-0.7-2.5-0.7
		c-1.5,0-2.1,0.9-2.1,1.7c0,1,0.7,1.6,2.5,2.3c2.1,0.8,3.1,1.9,3.1,3.7c0,1.8-1.4,3.2-3.2,3.4v2.1H433z"/>
	<path class="st1" d="M196,300.6c0,9.3-7.6,16.9-16.9,16.9c-9.3,0-16.9-7.6-16.9-16.9s7.6-24.3,16.9-24.3S196,291.2,196,300.6z"/>
	<path class="st1" d="M188.4,275.5l1.8-8.7c0.3-1.2-0.4-2.5-1.6-2.8c-0.4-0.1-0.8-0.1-1.2,0l-5.9,1.9c-1.5,0.5-3.2,0.5-4.7,0
		l-6.1-1.9c-1.2-0.3-2.5,0.5-2.8,1.7c-0.1,0.4-0.1,0.8,0,1.2l1.8,8.8"/>
	<path class="st1" d="M187.4,281.3h-16.6c-1.6,0-2.9-1.3-2.9-2.9l0,0c0-1.6,1.3-2.9,2.9-2.9h16.6c1.6,0,2.9,1.3,2.9,2.9l0,0
		C190.3,280,189,281.3,187.4,281.3z"/>
	<path class="st3" d="M178.5,307.9v-2c-1.1,0-2.1-0.3-3.1-0.9l0.5-1.3c0.9,0.6,1.9,0.9,2.9,0.9c1.4,0,2.4-0.8,2.4-2
		s-0.8-1.8-2.3-2.4c-2-0.8-3.3-1.7-3.3-3.5c0-1.7,1.3-3.1,3-3.2v-2h1.2v1.9c0.9,0,1.8,0.2,2.6,0.7l-0.5,1.3
		c-0.8-0.5-1.6-0.7-2.5-0.7c-1.5,0-2.1,0.9-2.1,1.7c0,1,0.7,1.6,2.5,2.3c2.1,0.8,3.1,1.9,3.1,3.7c0,1.8-1.4,3.2-3.2,3.4v2.1H178.5z"
		/>
	<path class="st1" d="M249.7,103.2h49.9c2.1,0,3.9,1.7,3.9,3.9V147c0,2.1-1.7,3.9-3.9,3.9h-49.9c-2.1,0-3.9-1.7-3.9-3.9v-39.8
		C245.8,105,247.5,103.2,249.7,103.2z"/>
	<line class="st4" x1="245.8" y1="138.2" x2="303.4" y2="138.2"/>
	<circle class="st2" cx="274.6" cy="144.8" r="2.3"/>
	<rect x="267.7" y="150.9" class="st1" width="13.8" height="7.5"/>
	<path class="st1" d="M261.4,158.4h26.3c1.3,0,2.3,1,2.3,2.3v1.5c0,1.3-1,2.3-2.3,2.3h-26.3c-1.3,0-2.3-1-2.3-2.3v-1.5
		C259.1,159.4,260.1,158.4,261.4,158.4z"/>
	<path class="st1" d="M573.1,301.8H623c2.1,0,3.9,1.7,3.9,3.9v39.8c0,2.1-1.7,3.9-3.9,3.9h-49.9c-2.1,0-3.9-1.7-3.9-3.9v-39.8
		C569.2,303.5,571,301.8,573.1,301.8z"/>
	<line class="st4" x1="569.2" y1="336.7" x2="626.8" y2="336.7"/>
	<circle class="st2" cx="598" cy="343.3" r="2.3"/>
	<rect x="591.1" y="349.4" class="st1" width="13.8" height="7.5"/>
	<path class="st1" d="M584.9,356.9h26.3c1.3,0,2.3,1,2.3,2.3v1.5c0,1.3-1,2.3-2.3,2.3h-26.3c-1.3,0-2.3-1-2.3-2.3v-1.5
		C582.5,357.9,583.6,356.9,584.9,356.9z"/>
	<path class="st1" d="M314.1,200.8c-1,0-1.9-0.4-2.6-1.1l-11.8-11.8c-1.4-1.4-1.4-3.8,0-5.2s3.8-1.4,5.2,0l8.9,8.9l13.6-17.6
		c1.3-1.6,3.6-1.9,5.2-0.7c1.6,1.3,1.9,3.6,0.7,5.2l-16.2,21c-0.6,0.8-1.6,1.4-2.7,1.4L314.1,200.8z"/>
	<path class="st1" d="M570.1,139.6c-1,0-1.9-0.4-2.6-1.1l-11.8-11.8c-1.4-1.4-1.4-3.8,0-5.2c1.4-1.4,3.8-1.4,5.2,0l0,0l8.8,8.9
		l13.7-17.7c1.3-1.6,3.6-1.9,5.2-0.7c1.6,1.3,1.9,3.6,0.7,5.2l0,0l-16.3,21c-0.6,0.8-1.6,1.4-2.7,1.4L570.1,139.6z"/>
	<path class="st1" d="M145.4,396.8c-1,0-1.9-0.4-2.6-1.1L131,383.9c-1.4-1.4-1.4-3.8,0-5.2c1.4-1.4,3.8-1.4,5.2,0l8.9,8.9l13.6-17.6
		c1.3-1.6,3.6-1.9,5.2-0.7c1.6,1.3,1.9,3.6,0.7,5.2l0,0l-16.2,21c-0.6,0.8-1.6,1.4-2.7,1.4L145.4,396.8z"/>
	<rect x="478.4" y="221.2" class="st5" width="7.8" height="22.2"/>
	<rect x="493.5" y="215.2" class="st5" width="7.8" height="28.2"/>
	<rect x="508.6" y="208.8" class="st5" width="7.8" height="34.7"/>
	<rect x="523.7" y="199" class="st5" width="7.8" height="44.4"/>
	<path class="st6" d="M531.1,177.2c-12.5,14.8-24.3,28.1-52.6,28.1"/>
	<polyline class="st6" points="522,177.2 531.1,177.2 531.1,186.2 	"/>
	<rect x="139" y="293.6" class="st5" width="6.4" height="18.3"/>
	<rect x="126.6" y="288.7" class="st5" width="6.4" height="23.2"/>
	<rect x="114.2" y="283.4" class="st5" width="6.4" height="28.5"/>
	<rect x="101.8" y="275.3" class="st5" width="6.4" height="36.5"/>
	<path class="st6" d="M102.1,257.4c10.3,12.2,20,23.1,43.3,23.1"/>
	<polyline class="st6" points="109.6,257.4 102.1,257.4 102.1,264.9 	"/>
	<path class="st5" d="M222.9,266.7c-7.2,0-13.1,5.9-13.1,13.1l0,0c0,7.9,13.1,26.3,13.1,26.3s13.1-18.6,13.1-26.3
		C235.9,272.5,230.1,266.7,222.9,266.7L222.9,266.7z M222.9,283.2c-2.7,0-4.9-2.2-4.9-4.9s2.2-4.9,4.9-4.9s4.9,2.2,4.9,4.9l0,0
		C227.8,281,225.6,283.2,222.9,283.2L222.9,283.2L222.9,283.2z"/>
	<path class="st5" d="M517,123.4c-7.2,0-13,5.9-13,13.1c0,7.9,13.1,26.3,13.1,26.3s13.1-18.6,13.1-26.3
		C530.1,129.3,524.3,123.4,517,123.4L517,123.4z M517,139.9c-2.7,0-4.9-2.2-4.9-4.9s2.2-4.9,4.9-4.9s4.9,2.2,4.9,4.9
		S519.7,139.9,517,139.9L517,139.9z"/>
	<path class="st5" d="M235.9,454c-7.2,0-13.1,5.9-13.1,13.1l0,0c0,7.9,13.1,26.3,13.1,26.3S249,474.7,249,467
		C249,459.8,243.1,454,235.9,454z M235.9,470.5c-2.7,0-4.9-2.2-4.9-4.9s2.2-4.9,4.9-4.9s4.9,2.2,4.9,4.9l0,0
		C240.8,468.3,238.6,470.5,235.9,470.5L235.9,470.5z"/>
	<path class="st5" d="M78.7,314.3c-7.2,0-13.1,5.9-13.1,13.1l0,0c0,7.9,13.1,26.3,13.1,26.3s13.1-18.6,13.1-26.3
		C91.8,320.1,85.9,314.3,78.7,314.3L78.7,314.3z M78.7,330.8c-2.7,0-4.9-2.2-4.9-4.9c0-2.7,2.2-4.9,4.9-4.9c2.7,0,4.9,2.2,4.9,4.9
		l0,0C83.6,328.6,81.4,330.8,78.7,330.8z"/>
	<path class="st5" d="M197.6,13.2c-7.2,0-13.1,5.9-13.1,13.1l0,0c0,7.8,13.1,26.3,13.1,26.3s13.1-18.6,13.1-26.3
		C210.7,19,204.8,13.2,197.6,13.2L197.6,13.2z M197.6,29.7c-2.7,0-4.9-2.2-4.9-4.9s2.2-4.9,4.9-4.9s4.9,2.2,4.9,4.9l0,0
		C202.5,27.5,200.3,29.7,197.6,29.7z"/>
	<path class="st5" d="M651.5,191.7c-7.2,0-13.1,5.9-13.1,13.1l0,0c0,7.9,13.1,26.3,13.1,26.3s13.1-18.6,13.1-26.3
		C664.6,197.5,658.7,191.7,651.5,191.7L651.5,191.7z M651.5,208.2c-2.7,0-4.9-2.2-4.9-4.9s2.2-4.9,4.9-4.9s4.9,2.2,4.9,4.9
		S654.2,208.2,651.5,208.2L651.5,208.2z"/>
	<path class="st5" d="M197.6,110.5c-7.2,0-13.1,5.9-13.1,13.1l0,0c0,7.9,13.1,26.3,13.1,26.3s13.1-18.6,13.1-26.3
		C210.7,116.4,204.8,110.5,197.6,110.5L197.6,110.5z M197.6,127c-2.7,0-4.9-2.2-4.9-4.9s2.2-4.9,4.9-4.9s4.9,2.2,4.9,4.9l0,0
		C202.5,124.8,200.3,127,197.6,127L197.6,127z"/>
	<path class="st5" d="M513.5,390.8c-7.2,0-13.1,5.9-13.1,13.1l0,0c0,7.9,13.1,26.3,13.1,26.3s13.1-18.6,13.1-26.3
		C526.5,396.6,520.7,390.8,513.5,390.8L513.5,390.8z M513.5,407.3c-2.7,0-4.9-2.2-4.9-4.9c0-2.7,2.2-4.9,4.9-4.9
		c2.7,0,4.9,2.2,4.9,4.9C518.4,405.1,516.2,407.3,513.5,407.3L513.5,407.3z"/>
	<path class="st5" d="M190.3,336.7c-7.2,0-13.1,5.9-13.1,13.1l0,0c0,7.9,13.1,26.3,13.1,26.3s13.1-18.6,13.1-26.3
		C203.4,342.5,197.5,336.7,190.3,336.7L190.3,336.7z M190.3,353.2c-2.7,0-4.9-2.2-4.9-4.9s2.2-4.9,4.9-4.9s4.9,2.2,4.9,4.9l0,0
		C195.2,351,193,353.2,190.3,353.2L190.3,353.2z"/>
	<path class="st5" d="M395.8,380.8v10.6c0,5,4.1,9.1,9.1,9.1l0,0h17.6l13.6,9.9l-0.7-9.9c5,0,9.1-4.1,9.1-9.1l0,0v-10.6
		c0-5-4.1-9.1-9.1-9.1l0,0h-30.5C399.8,371.7,395.8,375.8,395.8,380.8L395.8,380.8z"/>
	<line class="st6" x1="429.9" y1="379.6" x2="405.5" y2="379.6"/>
	<line class="st6" x1="436" y1="392.1" x2="418.6" y2="392.1"/>
	<line class="st6" x1="436" y1="385.8" x2="423.8" y2="385.8"/>
	<line class="st6" x1="414.1" y1="385.8" x2="406.3" y2="385.8"/>
	<path class="st5" d="M411.7,393.9v12.5c0,5.9-4.8,10.7-10.7,10.7h-20.8l-16.1,11.7l0.8-11.7c-5.9,0-10.7-4.8-10.7-10.7l0,0v-12.5
		c0-5.9,4.8-10.7,10.7-10.7c0,0,0,0,0.1,0h36C406.9,383.3,411.7,388,411.7,393.9z"/>
	<line class="st6" x1="371.4" y1="392.5" x2="400.1" y2="392.5"/>
	<line class="st6" x1="364.1" y1="407.3" x2="384.6" y2="407.3"/>
	<line class="st6" x1="364.1" y1="399.9" x2="378.6" y2="399.9"/>
	<line class="st6" x1="390" y1="399.9" x2="399.2" y2="399.9"/>
	<path class="st5" d="M593.7,155.2v10.6c0,5,4.1,9.1,9.1,9.1l0,0h17.6l13.6,9.9l-0.7-9.9c5,0,9.1-4.1,9.1-9.1l0,0v-10.6
		c0-5-4.1-9.1-9.1-9.1l0,0h-30.5C597.8,146.1,593.7,150.2,593.7,155.2L593.7,155.2z"/>
	<line class="st6" x1="627.8" y1="153.9" x2="603.5" y2="153.9"/>
	<line class="st6" x1="634" y1="166.5" x2="616.6" y2="166.5"/>
	<line class="st6" x1="634" y1="160.2" x2="621.7" y2="160.2"/>
	<line class="st6" x1="612" y1="160.2" x2="604.2" y2="160.2"/>
	<path class="st5" d="M609.6,168.3v12.5c0,5.9-4.8,10.7-10.7,10.7l0,0h-20.7l-16.1,11.7l0.8-11.7c-5.9,0-10.7-4.8-10.7-10.7l0,0
		v-12.5c0-5.9,4.8-10.7,10.7-10.7l0,0h36C604.8,157.6,609.6,162.4,609.6,168.3L609.6,168.3z"/>
	<line class="st6" x1="569.3" y1="166.9" x2="598" y2="166.9"/>
	<line class="st6" x1="562.1" y1="181.7" x2="582.6" y2="181.7"/>
	<line class="st6" x1="562.1" y1="174.3" x2="576.5" y2="174.3"/>
	<line class="st6" x1="588" y1="174.3" x2="597.1" y2="174.3"/>
	<circle class="st1" cx="235.8" cy="189.6" r="25.5"/>
	<circle class="st1" cx="235.8" cy="189.6" r="18.7"/>
	<line class="st6" x1="235.8" y1="164.1" x2="235.8" y2="170.9"/>
	<line class="st6" x1="257.7" y1="176.5" x2="252" y2="180.2"/>
	<line class="st6" x1="219.5" y1="180.5" x2="213.8" y2="176.7"/>
	<line class="st6" x1="217.1" y1="172.3" x2="221.9" y2="177.1"/>
	<path class="st3" d="M235.5,186.9c0,2.5-1.3,3.7-2.8,3.7s-2.7-1.2-2.7-3.5s1.3-3.7,2.8-3.7S235.5,184.6,235.5,186.9z M231.2,187
		c0,1.5,0.5,2.6,1.5,2.6s1.5-1.1,1.5-2.7s-0.4-2.6-1.5-2.6S231.2,185.5,231.2,187L231.2,187z M232.6,195.5l6.9-12.1h1l-6.9,12.1
		H232.6z M243.1,191.7c0,2.5-1.3,3.7-2.8,3.7s-2.7-1.2-2.7-3.5s1.3-3.7,2.8-3.7S243.1,189.5,243.1,191.7L243.1,191.7z M238.8,191.8
		c0,1.5,0.6,2.6,1.5,2.6s1.5-1.1,1.5-2.7s-0.4-2.6-1.5-2.6S238.8,190.3,238.8,191.8L238.8,191.8z"/>
	<circle class="st1" cx="600.3" cy="248" r="25.5"/>
	<circle class="st1" cx="600.3" cy="248" r="18.7"/>
	<line class="st6" x1="600.3" y1="222.4" x2="600.3" y2="229.2"/>
	<line class="st6" x1="622.2" y1="234.9" x2="616.5" y2="238.5"/>
	<line class="st6" x1="584" y1="238.8" x2="578.3" y2="235.1"/>
	<line class="st6" x1="581.6" y1="230.6" x2="586.4" y2="235.4"/>
	<path class="st3" d="M600,245.2c0,2.5-1.3,3.7-2.8,3.7s-2.7-1.2-2.7-3.5s1.3-3.7,2.8-3.7S600,243,600,245.2z M595.7,245.3
		c0,1.5,0.5,2.6,1.5,2.6s1.5-1.1,1.5-2.7s-0.4-2.6-1.5-2.6S595.7,243.8,595.7,245.3L595.7,245.3z M597.1,253.8l6.9-12.1h1l-6.9,12.1
		H597.1z M607.6,250.1c0,2.5-1.3,3.7-2.8,3.7s-2.7-1.2-2.7-3.5s1.3-3.7,2.8-3.7S607.6,247.8,607.6,250.1L607.6,250.1z M603.3,250.2
		c0,1.5,0.6,2.6,1.5,2.6s1.5-1.1,1.5-2.7s-0.4-2.6-1.5-2.6S603.3,248.7,603.3,250.2L603.3,250.2z"/>
	<path class="st1" d="M347.6,97v42.1h0.2c3.4,0,6.3-2.5,6.8-5.9l5.3-37"/>
	<circle class="st1" cx="375.4" cy="86.8" r="8.6"/>
	<path class="st1" d="M370.7,68.4v36.9c0-4.7-3.8-8.6-8.6-8.6h-15.4c-5.5,0-9.9-4.4-9.9-9.9s4.4-9.9,9.9-9.9h15.4
		C366.8,77,370.7,73.1,370.7,68.4L370.7,68.4z"/>
	<line class="st4" x1="352.8" y1="77" x2="352.8" y2="96.2"/>
	<path class="st1" d="M373,109.2L373,109.2c-1.3,0-2.3-1.1-2.4-2.3V66.1c0-1.3,1.1-2.3,2.4-2.4l0,0c1.3,0,2.3,1.1,2.4,2.4v40.8
		C375.3,108.2,374.3,109.2,373,109.2z"/>
	<line class="st6" x1="403.9" y1="61.9" x2="411.5" y2="56.1"/>
	<line class="st6" x1="386.2" y1="75.3" x2="397.2" y2="66.9"/>
	<line class="st6" x1="396.9" y1="78.2" x2="388.5" y2="82.5"/>
	<line class="st6" x1="416.8" y1="68.2" x2="404.4" y2="74.4"/>
	<line class="st6" x1="403.9" y1="111.1" x2="411.5" y2="116.8"/>
	<line class="st6" x1="386.2" y1="97.6" x2="397.2" y2="106"/>
	<line class="st6" x1="396.9" y1="94.7" x2="388.5" y2="90.4"/>
	<line class="st6" x1="416.8" y1="104.8" x2="404.4" y2="98.5"/>
	<line class="st6" x1="393.9" y1="86.5" x2="399" y2="86.5"/>
	<line class="st6" x1="404.4" y1="86.5" x2="415.2" y2="86.5"/>
	<line class="st6" x1="421.6" y1="86.6" x2="426" y2="86.6"/>
	<path class="st5" d="M344.5,338.9L344.5,338.9c-1.8,0-3.2-1.4-3.2-3.2v-12.5c0-1.8,1.4-3.2,3.2-3.2l0,0c1.8,0,3.2,1.4,3.2,3.2v12.5
		C347.8,337.5,346.3,338.9,344.5,338.9z"/>
	<path class="st5" d="M394.2,338.9L394.2,338.9c-1.8,0-3.2-1.4-3.2-3.2v-12.5c0-1.8,1.4-3.2,3.2-3.2l0,0c1.8,0,3.2,1.4,3.2,3.2v12.5
		C397.4,337.5,396,338.9,394.2,338.9z"/>
	<path class="st6" d="M344.5,319.9c0-13.7,11.1-24.8,24.8-24.8s24.8,11.1,24.8,24.8"/>
	<path class="st6" d="M392.2,338.9l-3.1,8.2c-2.7,7.1-10.3,10.9-17.6,8.7l0,0"/>
	<circle class="st5" cx="369.4" cy="354.5" r="3.8"/>
	<path class="st5" d="M242.8,260.9v3.6c0,3.3,2.6,5.9,5.9,5.9h38.6"/>
	<path class="st5" d="M253.9,260.9v-43.8h38.6v48c0,2.9-2.4,5.3-5.3,5.3l0,0l0,0c-2.9,0-5.3-2.4-5.3-5.3l0,0v-4.2h-39.2"/>
	<line class="st6" x1="261.1" y1="227.1" x2="282" y2="227.1"/>
	<line class="st6" x1="261.1" y1="248" x2="282" y2="248"/>
	<line class="st6" x1="261.1" y1="241" x2="282" y2="241"/>
	<line class="st6" x1="261.1" y1="234.1" x2="275.3" y2="234.1"/>
	<path class="st1" d="M487.4,266.3h61c2,0,3.6,1.6,3.6,3.6v34c0,2-1.6,3.6-3.6,3.6h-61c-2,0-3.6-1.6-3.6-3.6v-34
		C483.9,267.9,485.5,266.3,487.4,266.3z"/>
	<line class="st6" x1="491.1" y1="299.2" x2="508.8" y2="299.2"/>
	<line class="st6" x1="517" y1="299.2" x2="530.1" y2="299.2"/>
	<line class="st6" x1="538.4" y1="299.2" x2="544.9" y2="299.2"/>
	<rect x="492.8" y="275.4" class="st6" width="12.2" height="12.2"/>
	<line class="st6" x1="500.9" y1="275.4" x2="500.9" y2="280.2"/>
	<line class="st6" x1="496.5" y1="281.5" x2="496.5" y2="286.3"/>
	<line class="st6" x1="544.9" y1="266.3" x2="544.9" y2="307.5"/>
	<path class="st1" d="M106.3,161.1h61c2,0,3.6,1.6,3.6,3.6v34c0,2-1.6,3.6-3.6,3.6h-61c-2,0-3.6-1.6-3.6-3.6v-34
		C102.7,162.7,104.3,161.1,106.3,161.1z"/>
	<line class="st6" x1="110" y1="193.9" x2="127.7" y2="193.9"/>
	<line class="st6" x1="135.9" y1="193.9" x2="148.9" y2="193.9"/>
	<line class="st6" x1="157.2" y1="193.9" x2="163.8" y2="193.9"/>
	<rect x="111.6" y="170.2" class="st6" width="12.2" height="12.2"/>
	<line class="st6" x1="119.8" y1="170.2" x2="119.8" y2="175"/>
	<line class="st6" x1="115.4" y1="176.3" x2="115.4" y2="181.1"/>
	<line class="st6" x1="163.8" y1="161.1" x2="163.8" y2="202.3"/>
	<path class="st5" d="M250.1,331l2.4,5.5c0.7,1.7,2.4,2.8,4.2,2.9c1.1-1.8,3.5-2.3,5.2-1.2c0.7,0.4,1.2,1,1.5,1.7l2.3,5.4
		c0.8,1.9-0.1,4.2-2,5l-1.2,0.5c-5.6,2.4-12.2-0.2-14.6-5.8l-7.2-16.6c-2.4-5.6,0.2-12.2,5.8-14.6l1.2-0.5c1.9-0.8,4.2,0.1,5,2
		l2.3,5.4c0.8,1.9,0,4.2-2,5c-0.7,0.3-1.5,0.4-2.3,0.2C249.6,327.3,249.3,329.3,250.1,331z"/>
	<path class="st5" d="M298.3,360.8h-0.1l2.8,17.1l13.4-10.9C309.9,363,304.2,360.8,298.3,360.8z"/>
	<path class="st5" d="M274.7,381.1H294l-3.1-19.1C282.3,364.8,276.1,372.2,274.7,381.1z"/>
	<path class="st5" d="M308.7,381.1h13.2c-0.5-2.9-1.5-5.8-3-8.3L308.7,381.1z"/>
	<path class="st5" d="M298.3,408.7h0.1l-2.9-17.6l-14.7,10.1C285.4,406,291.7,408.7,298.3,408.7z"/>
	<path class="st5" d="M321.9,388.5h-19.3l3.1,19.1C314.2,404.7,320.5,397.4,321.9,388.5z"/>
	<polyline class="st6" points="274.5,387.4 271.7,392.7 277,395.4 	"/>
	<line class="st6" x1="274.3" y1="391.7" x2="293.5" y2="386.8"/>
	<path class="st5" d="M337.3,224h-0.1l2.8,17.1l13.4-10.9C348.9,226.2,343.2,224,337.3,224z"/>
	<path class="st5" d="M313.7,244.3H333l-3.1-19.1C321.3,228,315,235.4,313.7,244.3z"/>
	<path class="st5" d="M347.7,244.3h13.2c-0.5-2.9-1.5-5.8-3-8.3L347.7,244.3z"/>
	<path class="st5" d="M337.3,272h0.1l-2.9-17.6l-14.7,10.1C324.4,269.3,330.7,272,337.3,272z"/>
	<path class="st5" d="M360.9,251.7h-19.3l3.1,19.1C353.2,267.9,359.5,260.6,360.9,251.7z"/>
	<polyline class="st6" points="313.5,250.6 310.7,255.9 316,258.6 	"/>
	<line class="st6" x1="313.3" y1="254.9" x2="332.5" y2="250"/>
	<path class="st5" d="M66.3,94.4L66.3,94.4l2.7,17.1l13.4-10.9C78,96.6,72.3,94.4,66.3,94.4z"/>
	<path class="st5" d="M42.8,114.7H62l-3.1-19.1C50.4,98.4,44.1,105.8,42.8,114.7z"/>
	<path class="st5" d="M76.8,114.7H90c-0.5-2.9-1.5-5.8-3-8.3L76.8,114.7z"/>
	<path class="st5" d="M66.3,142.3L66.3,142.3l-2.7-17.6L49,134.8C53.5,139.6,59.8,142.3,66.3,142.3z"/>
	<path class="st5" d="M90,122.1H70.7l3.1,19.1C82.3,138.3,88.6,131,90,122.1z"/>
	<polyline class="st6" points="42.6,121 39.8,126.2 45.1,129 	"/>
	<line class="st6" x1="42.4" y1="125.3" x2="61.6" y2="120.4"/>
	<circle class="st5" cx="484.6" cy="375.7" r="3.8"/>
	<circle class="st5" cx="513.5" cy="373.8" r="3.2"/>
	<polygon class="st5" points="514.4,354.1 483.9,354.1 479.2,334.4 519.2,334.4 	"/>
	<path class="st6" d="M485,375.2l4.6-4.6h25.6c2.2,0,3.9-1.8,4-4l0,0c0-2.2-1.8-3.9-4-4h-29.4l-10-42.1h-9.6"/>
	<line class="st6" x1="480.9" y1="340.8" x2="506.4" y2="340.8"/>
	<line class="st6" x1="482.3" y1="347.4" x2="499.2" y2="347.4"/>
	<circle class="st5" cx="502.1" cy="106.8" r="3.8"/>
	<circle class="st5" cx="531" cy="104.9" r="3.2"/>
	<polygon class="st5" points="531.9,85.2 501.4,85.2 496.7,65.6 536.7,65.6 	"/>
	<path class="st6" d="M502.5,106.3l4.6-4.6h25.6c2.2,0,3.9-1.8,4-3.9l0,0c0-2.2-1.8-3.9-4-3.9h-29.4l-10-42.1h-9.7"/>
	<line class="st6" x1="498.4" y1="71.9" x2="523.9" y2="71.9"/>
	<line class="st6" x1="499.8" y1="78.5" x2="516.7" y2="78.5"/>
	<circle class="st5" cx="151.4" cy="124.2" r="3.8"/>
	<circle class="st5" cx="122.6" cy="122.2" r="3.2"/>
	<polygon class="st5" points="121.6,102.6 152.1,102.6 156.8,82.9 116.8,82.9 	"/>
	<path class="st6" d="M151,123.6l-4.6-4.6h-25.6c-2.2,0-3.9-1.8-3.9-3.9l0,0c0-2.2,1.8-3.9,3.9-3.9h29.3l10-42.1h9.7"/>
	<line class="st6" x1="155.2" y1="89.2" x2="129.6" y2="89.2"/>
	<line class="st6" x1="153.7" y1="95.8" x2="136.8" y2="95.8"/>
	<path class="st5" d="M470.8,142.2l6.5-0.9l-1-7.6l-6.5,0.9c-0.2-0.6-0.5-1.3-0.7-1.9l5.3-3.8l-4.4-6.2l-5.3,3.8
		c-0.5-0.5-1-0.9-1.5-1.3l3-5.8l-6.8-3.5l-3,5.8c-1-0.3-1.9-0.5-2.9-0.6v-7h-7.6v7.4c-0.7,0.2-1.4,0.4-2.1,0.6l-3.3-5.6l-6.6,3.9
		l3.3,5.6c-0.5,0.5-1,0.9-1.5,1.4l-5.6-3.4l-4,6.5l5.5,3.4c-0.2,0.6-0.5,1.3-0.6,1.9l-6.5-0.5l-0.6,7.6l6.5,0.5
		c0.1,0.7,0.2,1.3,0.3,2l-6,2.5l3,7l6-2.5c0.4,0.6,0.8,1.1,1.2,1.6l-4.1,5l5.9,4.9l4.1-5c0.6,0.3,1.2,0.6,1.9,0.9l-1.4,6.4l7.5,1.6
		l1.4-6.4h0.5c0.5,0,1.1,0,1.6-0.1l1.7,6.3l7.4-2l-1.7-6.3c0.6-0.3,1.2-0.6,1.8-1l4.4,4.8l5.6-5.2l-4.4-4.8c0.4-0.5,0.8-1.1,1.1-1.7
		l6.1,2.2l2.6-7.2l-6.1-2.2C470.7,143.5,470.7,142.8,470.8,142.2z M450.5,151.9c-6,0-10.8-4.8-10.8-10.8s4.8-10.8,10.8-10.8
		s10.8,4.8,10.8,10.8C461.4,147,456.5,151.8,450.5,151.9L450.5,151.9L450.5,151.9z"/>
	<path class="st6" d="M461.3,141c0,6-4.9,10.8-10.8,10.8s-10.8-4.9-10.8-10.8c0-6,4.9-10.8,10.8-10.8
		C456.5,130.2,461.3,135,461.3,141L461.3,141z"/>
	<path class="st5" d="M235.3,402l5.1-0.7l-0.8-5.9l-5.1,0.7c-0.2-0.5-0.4-1-0.6-1.5l4.2-2.9l-3.4-4.9l-4.2,2.9
		c-0.4-0.4-0.8-0.7-1.2-1.1l2.4-4.5l-5.3-2.8l-2.4,4.6c-0.8-0.2-1.5-0.4-2.3-0.5v-5.5h-6v5.8c-0.6,0.1-1.1,0.3-1.7,0.5l-2.6-4.4
		l-5.1,3l2.6,4.4c-0.4,0.4-0.8,0.7-1.1,1.1l-4.3-2.7l-3.2,5.1l4.3,2.7c-0.2,0.5-0.4,1-0.5,1.5l-5.1-0.4l-0.5,6l5.1,0.4
		c0.1,0.5,0.2,1.1,0.3,1.6l-4.7,2l2.3,5.5l4.7-2c0.3,0.5,0.6,0.9,1,1.3l-3.2,3.9l4.6,3.8l3.2-3.9c0.5,0.3,1,0.5,1.4,0.7l-1.1,5
		l5.8,1.2l1.1-5h0.4c0.4,0,0.8,0,1.2-0.1l1.3,5l5.8-1.6l-1.4-4.9c0.5-0.2,0.9-0.5,1.4-0.8l3.5,3.8l4.4-4.1l-3.5-3.8
		c0.3-0.4,0.6-0.9,0.9-1.3l4.9,1.7l2-5.6l-4.8-1.7C235.3,403.1,235.3,402.5,235.3,402z M219.4,409.6c-4.7,0-8.5-3.8-8.5-8.5
		s3.8-8.5,8.5-8.5s8.5,3.8,8.5,8.5C228,405.8,224.2,409.6,219.4,409.6C219.5,409.6,219.5,409.6,219.4,409.6L219.4,409.6z"/>
	<path class="st6" d="M227.9,401.2c0,4.7-3.8,8.5-8.5,8.5s-8.5-3.8-8.5-8.5s3.8-8.5,8.5-8.5C224.1,392.7,227.9,396.5,227.9,401.2
		L227.9,401.2z"/>
	<path class="st1" d="M323.4,320.3l3-0.1l-0.2-5.4l-3.4,0.1c-0.3-1-0.6-2-1-2.9l2.9-1.7l-2.7-4.7l-3.2,1.9c-0.7-0.7-1.4-1.4-2.2-2
		l1.9-3l-4.6-2.8l-2,3.2c-0.8-0.3-1.6-0.5-2.4-0.7v-3.3H304v2.9c-0.8,0-1.6,0.2-2.4,0.3l-1.2-2.6l-4.9,2.3l1.1,2.3
		c-1,0.6-2,1.2-2.9,2l-2-1.5l-3.3,4.3l1.7,1.3c-0.7,1-1.2,2.1-1.6,3.3l-2.2-0.4l-0.9,5.3l1.9,0.3c0,0.3,0,0.7,0,1
		c0,0.9,0.1,1.8,0.2,2.8l-2,0.7l1.7,5.1l1.9-0.6c0.6,1.1,1.2,2.2,2,3.2l-1.5,1.6l3.9,3.7l1.5-1.6c1,0.7,2,1.3,3.2,1.8l-0.7,2.4
		l5.2,1.4l0.7-2.4c0.6,0.1,1.3,0.1,1.9,0.1c0.3,0,0.6,0,0.9,0l0.3,2l5.3-0.8l-0.4-2.3c1.1-0.4,2.2-0.9,3.2-1.6l1.4,1.9l4.3-3.2
		l-1.6-2.2c0.8-0.9,1.4-1.8,2-2.8l2.4,1.1l2.3-4.9l-2.7-1.3C323.2,322.5,323.3,321.4,323.4,320.3z M306,322.5
		c-1.7,0-3.1-1.4-3.1-3.1s1.4-3.1,3.1-3.1s3.1,1.4,3.1,3.1S307.7,322.5,306,322.5L306,322.5z"/>
	<path class="st1" d="M579.5,395.6l3-0.1l-0.2-5.4l-3.4,0.1c-0.3-1-0.6-2-1.1-2.9l2.9-1.7L578,381l-3.2,1.9c-0.7-0.7-1.4-1.4-2.2-2
		l1.9-3l-4.6-2.8l-2,3.2c-0.8-0.3-1.6-0.5-2.4-0.7v-3.3h-5.4v2.9c-0.8,0-1.6,0.2-2.4,0.3l-1.2-2.6l-4.9,2.3l1.1,2.3
		c-1,0.6-2,1.2-2.9,2l-2-1.5l-3.3,4.3l1.7,1.3c-0.7,1-1.2,2.1-1.6,3.3l-2.2-0.4l-0.9,5.3l1.9,0.3c0,0.3,0,0.7,0,1
		c0,0.9,0.1,1.8,0.2,2.8l-2,0.7l1.7,5.1l1.9-0.6c0.6,1.1,1.2,2.2,2,3.2l-1.5,1.6l3.9,3.7l1.5-1.6c1,0.7,2,1.3,3.2,1.8l-0.7,2.4
		l5.2,1.4l0.7-2.4c0.6,0.1,1.3,0.1,1.9,0.1c0.3,0,0.6,0,0.9,0l0.3,2l5.3-0.8l-0.3-2.3c1.1-0.4,2.2-0.9,3.2-1.6l1.4,1.9l4.3-3.2
		l-1.6-2.1c0.8-0.9,1.4-1.8,2-2.8l2.4,1.1l2.3-4.9l-2.8-1.3C579.3,397.8,579.5,396.7,579.5,395.6z M562.1,397.8
		c-1.7,0-3.1-1.4-3.1-3.1s1.4-3.1,3.1-3.1c1.7,0,3.1,1.4,3.1,3.1C565.2,396.4,563.8,397.8,562.1,397.8L562.1,397.8L562.1,397.8z"/>
	<path class="st1" d="M423,451.3l3-0.1l-0.2-5.4l-3.4,0.1c-0.3-1-0.6-2-1.1-2.9l2.9-1.7l-2.7-4.7l-3.2,1.9c-0.7-0.7-1.4-1.4-2.2-2
		l1.9-3l-4.6-2.8l-2,3.2c-0.8-0.3-1.6-0.5-2.4-0.7v-3.3h-5.4v2.9c-0.8,0-1.6,0.2-2.4,0.3l-1.2-2.7l-4.9,2.3l1.1,2.3
		c-1,0.6-2,1.2-2.9,2l-2-1.5l-3.3,4.3l1.7,1.3c-0.7,1-1.2,2.1-1.6,3.3L386,444l-0.9,5.3l1.9,0.3c0,0.3,0,0.7,0,1
		c0,0.9,0.1,1.8,0.2,2.8l-2,0.7l1.7,5.1l1.9-0.6c0.6,1.1,1.2,2.2,2,3.2l-1.5,1.6l3.9,3.7l1.5-1.6c1,0.7,2,1.3,3.2,1.8l-0.7,2.4
		l5.2,1.4l0.7-2.4c0.6,0.1,1.3,0.1,1.9,0.1c0.3,0,0.6,0,0.9,0l0.3,2l5.3-0.8l-0.4-2.3c1.1-0.4,2.2-0.9,3.2-1.6l1.4,1.9l4.3-3.2
		l-1.6-2.1c0.8-0.9,1.4-1.8,2-2.8l2.4,1.1l2.3-4.9l-2.8-1.3C422.9,453.5,423,452.4,423,451.3z M405.6,453.6c-1.7,0-3.1-1.4-3.1-3.1
		s1.4-3.1,3.1-3.1s3.1,1.4,3.1,3.1C408.7,452.1,407.3,453.6,405.6,453.6L405.6,453.6L405.6,453.6z"/>
	<circle class="st5" cx="272.3" cy="320.6" r="2.6"/>
	<circle class="st5" cx="475.9" cy="263.8" r="2.6"/>
	<circle class="st5" cx="478.4" cy="181.7" r="2.6"/>
	<circle class="st5" cx="205.7" cy="209.5" r="2.6"/>
	<circle class="st5" cx="435.9" cy="71.3" r="2.6"/>
	<circle class="st5" cx="311.9" cy="86.5" r="2.6"/>
	<circle class="st5" cx="397.5" cy="130.2" r="2.6"/>
	<circle class="st5" cx="163.5" cy="241.9" r="2.6"/>
	<circle class="st5" cx="228.1" cy="144.9" r="2.6"/>
	<circle class="st5" cx="465" cy="197.2" r="2.6"/>
	<circle class="st5" cx="454" cy="283.9" r="2.6"/>
	<circle class="st5" cx="340.4" cy="372.7" r="2.6"/>
	<circle class="st5" cx="221" cy="332.4" r="2.6"/>
	<circle class="st5" cx="205.7" cy="247.1" r="2.6"/>
	<circle class="st5" cx="332.1" cy="112.4" r="2.6"/>
	<circle class="st5" cx="557.5" cy="253.3" r="2.6"/>
	<circle class="st5" cx="282.5" cy="427.1" r="2.6"/>
	<circle class="st5" cx="289.6" cy="61.9" r="2.6"/>
	<circle class="st5" cx="467.6" cy="407.5" r="2.6"/>
	<circle class="st5" cx="538.4" cy="354.5" r="2.6"/>
	<line class="st6" x1="252.9" y1="296.3" x2="282.5" y2="296.3"/>
	<line class="st6" x1="263" y1="287.2" x2="281.4" y2="287.2"/>
	<line class="st6" x1="479.9" y1="93.7" x2="450.2" y2="93.7"/>
	<line class="st6" x1="469.7" y1="84.6" x2="451.4" y2="84.6"/>
	<line class="st6" x1="144.3" y1="228.8" x2="114.6" y2="228.8"/>
	<line class="st6" x1="134.1" y1="219.6" x2="115.8" y2="219.6"/>
	<line class="st6" x1="474" y1="386.9" x2="465" y2="386.9"/>
	<line class="st6" x1="189" y1="180.1" x2="180" y2="180.1"/>
	<line class="st6" x1="168.2" y1="135.8" x2="159.2" y2="135.8"/>
	<line class="st6" x1="629.8" y1="283.9" x2="620.8" y2="283.9"/>
	<line class="st6" x1="562" y1="92.7" x2="553" y2="92.7"/>
	<line class="st6" x1="141.3" y1="336.7" x2="132.3" y2="336.7"/>
	<line class="st6" x1="267.5" y1="413.4" x2="258.5" y2="413.4"/>
	<line class="st6" x1="259.3" y1="59.7" x2="250.3" y2="59.7"/>
	<line class="st6" x1="257.5" y1="372" x2="248.4" y2="372"/>
	<line class="st6" x1="449.3" y1="215.5" x2="440.3" y2="215.5"/>
	<line class="st6" x1="288.4" y1="89.1" x2="279.4" y2="89.1"/>
	<line class="st6" x1="462.9" y1="234.6" x2="453.9" y2="234.6"/>
	<line class="st6" x1="465" y1="369.3" x2="456" y2="369.3"/>
	<line class="st6" x1="438.1" y1="184.3" x2="429.1" y2="184.3"/>
	<line class="st6" x1="334" y1="66.1" x2="325" y2="66.1"/>
	<line class="st6" x1="553.9" y1="229.3" x2="544.9" y2="229.3"/>
	<line class="st6" x1="372.3" y1="339.9" x2="363.3" y2="339.9"/>
	<line class="st6" x1="380.5" y1="127.1" x2="371.5" y2="127.1"/>
	<line class="st6" x1="285.4" y1="184.2" x2="276.4" y2="184.2"/>
	<line class="st6" x1="316.7" y1="217.1" x2="307.7" y2="217.1"/>
	<line class="st6" x1="313.7" y1="418" x2="343.4" y2="418"/>
	<line class="st6" x1="323.9" y1="408.9" x2="342.3" y2="408.9"/>
	<line class="st6" x1="262.1" y1="471.1" x2="291.8" y2="471.1"/>
	<line class="st6" x1="272.3" y1="462" x2="290.6" y2="462"/>
	<line class="st6" x1="264.6" y1="24.1" x2="294.3" y2="24.1"/>
	<line class="st6" x1="274.8" y1="15" x2="293.1" y2="15"/>
	<line class="st6" x1="8.5" y1="159.7" x2="38.2" y2="159.7"/>
	<line class="st6" x1="18.7" y1="150.6" x2="37.1" y2="150.6"/>
	<line class="st6" x1="663.9" y1="178.8" x2="693.6" y2="178.8"/>
	<line class="st6" x1="674.1" y1="169.7" x2="692.4" y2="169.7"/>
	<line class="st6" x1="588.1" y1="84.9" x2="617.8" y2="84.9"/>
	<line class="st6" x1="598.3" y1="75.8" x2="616.6" y2="75.8"/>
	<line class="st6" x1="206.1" y1="234.6" x2="235.8" y2="234.6"/>
	<line class="st6" x1="216.3" y1="225.5" x2="234.6" y2="225.5"/>
	<line class="st6" x1="303.4" y1="159.7" x2="333.1" y2="159.7"/>
	<line class="st6" x1="313.5" y1="150.6" x2="331.9" y2="150.6"/>
	<path id="Shape_16" class="st2" d="M166.6,416.1c-1.8-1.7-0.8-6-0.8-6s0.1-0.3,0.3-0.8c1.1-3,5.7-12.7,19.1-7.1l-3.4,0.9
		c0,0,10.8,0.6,10.8,18.1v41.3c0,0-8.3,7.4-18.6-4.8s-7.5-30.3-7.5-30.3S168.3,417.8,166.6,416.1z"/>
	<path id="Rounded_Rectangle_7" class="st2" d="M159.6,413.1c12.3,0,22.2,10,22.2,22.2l0,0v4.6c0,12.3-10,22.3-22.3,22.3
		s-22.3-10-22.3-22.3v-4.6C137.3,423.1,147.2,413.1,159.6,413.1C159.5,413.1,159.5,413.1,159.6,413.1z"/>
	<path id="body-bg-flat_copy" class="st7" d="M130.6,497.7c0,0-1.4-18.7,16.2-20.4h7.9v-3.6c3.6,1.4,7.5,1.5,11.2,0.3l0.2,3.4h9.2
		c0,0,15.8,0.6,15.1,20.6L130.6,497.7z"/>
	<path id="Rounded_Rectangle_13" class="st8" d="M190.3,498.5H130l0.3-4.9c0.6-9.5,8.1-16.8,16.7-16.8h6.6v1h-6
		c-8.3,0-15.6,7-16.1,16.2l-0.2,3.4h58.9L190,494c-0.5-9.2-7.8-16.2-16.1-16.2h-8.1v-1h8.5c8.6,0,16.1,7.3,16.7,16.8l0.3,4.9
		L190.3,498.5L190.3,498.5z"/>
	<path id="Ellipse_4" class="st2" d="M159.9,487.8c-4.7,0-8.6-3.8-8.6-8.6c0-0.8,0.1-1.6,0.3-2.4h2.5v1h-1.8c-0.8,4.2,2,8.2,6.2,9
		s8.2-2,9-6.2c0.2-0.9,0.2-1.9,0-2.8h-1.8v-1h2.5c1.3,4.6-1.3,9.3-5.9,10.7C161.6,487.6,160.8,487.8,159.9,487.8z"/>
	<path id="neck" class="st2" d="M154.7,473.2v5.5c0,2.8,2.3,5.1,5.1,5.1s5.1-2.3,5.1-5.1v-5.4l0.9-0.3v5.7c0,3.4-2.7,6.1-6.1,6.1
		s-6.1-2.7-6.1-6.1v-5.9C154,473,154.3,473.1,154.7,473.2z"/>
	<path id="_1_copy_4" class="st7" d="M160,419.5c11.2,0,19.8,9.9,19.3,21.1l-0.6,15.3c-1.8,10.4-8.9,17.9-18.6,18.9
		c-9.5-1-16.8-8.5-18.8-18.9l-0.6-15.3C140.2,429.3,148.8,419.5,160,419.5z"/>
	<path id="_1_line" class="st9" d="M180.6,440l-0.7,16c-1.9,10.9-9.5,18.7-19.8,19.8c-10.1-1-17.8-8.9-20-19.8l-0.7-16
		c-0.4-11.8,8.6-22.1,20.6-22.1S181,428.2,180.6,440z M160,419.1c-11.2,0-19.8,9.9-19.3,21.1l0.6,15.3c2,10.4,9.3,17.9,18.8,18.9
		c9.7-1,16.9-8.5,18.6-18.9l0.6-15.3C179.8,429,171.2,419.1,160,419.1z"/>
	<path id="usta" class="st2" d="M169.6,461.5c-1.6,1.4-5.2,2.7-9.5,2.7s-7.9-1.3-9.5-2.7c0,0-0.2-0.5,0.1-0.7
		c0.2-0.1,0.4-0.2,0.6-0.2c1.6,1.4,4.5,2.5,8.8,2.5s7.2-1.1,8.8-2.5c0,0,0.4-0.1,0.6,0C169.7,460.8,169.7,461.2,169.6,461.5z"/>
	<path id="_-" class="st2" d="M157.2,466.3h5.7v0.9h-5.7V466.3z"/>
	<path id="Shape_11_copy" class="st7" d="M139.6,441.9c-0.2-0.1-0.4-0.2-0.6-0.3c-0.2-0.1-0.5-0.1-0.7-0.1H138h-0.2
		c-0.2,0-0.3,0-0.5,0.1c-0.8,0.2-1.4,0.8-1.7,1.6c-0.2,0.6-0.3,1.2-0.4,1.8c0,0.2,0,0.4,0,0.6s0,0.4,0,0.6c0,0.5,0.1,0.9,0.2,1.5
		c0,1.2,0.1,2.3,0.5,3.5c0.5,1.8,1.9,4,4.2,4.7C139.9,451.2,139.9,446.5,139.6,441.9L139.6,441.9z"/>
	<path id="Shape_3" class="st2" d="M139.9,442.1c0,0-4.2-1.3-4,3c0,0,0.6,6.2,0.9,6.8c0,0,1.6,3.6,4.4,3.8l0,0v1.2
		c-3-0.6-5.4-3-5.7-6.1l-0.7-5c0,0-0.6-6.6,4.9-4.9l0,0L139.9,442.1"/>
	<path id="Shape_4" class="st2" d="M138.5,450.8c-0.1,0.1-0.3,0.2-0.4,0.2c-0.2,0-0.3-0.1-0.4-0.2l-0.4-4.4c0,0,0.6-2.1,3.1-1
		l0.1,1.2c0,0-2.2-0.8-2.2,0.2S138.5,450.8,138.5,450.8z"/>
	<path id="Shape_11_copy_1" class="st7" d="M180.5,441.9c0.2-0.1,0.4-0.2,0.6-0.3c0.2-0.1,0.5-0.1,0.8-0.1h0.2h0.2
		c0.2,0,0.3,0,0.5,0.1c0.8,0.2,1.4,0.8,1.7,1.6c0.2,0.6,0.3,1.2,0.4,1.8c0,0.2,0,0.4,0,0.6s0,0.4,0,0.6c0,0.5-0.1,0.9-0.2,1.5
		c0,1.2-0.1,2.3-0.5,3.5c-0.6,1.8-1.9,4-4.3,4.7C180.3,451.2,180.3,446.5,180.5,441.9L180.5,441.9z"/>
	<path id="Shape_3_1" class="st2" d="M180,442.1c0,0,4.2-1.3,4.1,3c0,0-0.6,6.2-0.9,6.8c0,0-1.6,3.6-4.4,3.8l0,0v1.2
		c3-0.6,5.4-3,5.7-6.1l0.7-5c0,0,0.6-6.6-4.9-4.9l0,0L180,442.1"/>
	<path id="Shape_4_1" class="st2" d="M181.4,450.8c0.1,0.1,0.3,0.2,0.4,0.2c0.2,0,0.3-0.1,0.4-0.2l0.4-4.4c0,0-0.6-2.1-3.1-1
		l-0.1,1.2c0,0,2.2-0.8,2.2,0.2S181.4,450.8,181.4,450.8z"/>
	<path id="new_vector_shape_done" class="st2" d="M161.6,450.4h0.3c0.6,1,1,2.2,1.2,3.4c0.1,0.4,0,0.8-0.1,1.2
		c-0.3,0.9-1.4,0.9-2.3,1.3c-0.2,0.2-0.5,0.3-0.7,0.4c-0.2-0.2-0.4-0.2-0.5-0.5s0.1-0.5,0.3-0.7c0.4-0.2,1.8-0.5,2-0.9
		c0.2-0.2,0.1-0.9,0-1.1c-0.1-0.6-0.3-1.1-0.5-1.7c-0.2-0.4-0.4-0.8-0.3-1.2C161.3,450.6,161.5,450.5,161.6,450.4z"/>
	<path id="Rounded_Rectangle_8" class="st2" d="M149.4,443.6h1.2c0.7,0,1.2,0.6,1.2,1.2c0,0.7-0.6,1.2-1.2,1.2h-1.2
		c-0.7,0-1.2-0.6-1.2-1.2C148.1,444.2,148.7,443.6,149.4,443.6z"/>
	<path id="Rounded_Rectangle_8_copy" class="st2" d="M169.6,443.6h1.2c0.7,0,1.2,0.6,1.2,1.2c0,0.7-0.6,1.2-1.2,1.2h-1.2
		c-0.7,0-1.2-0.6-1.2-1.2C168.3,444.2,168.9,443.6,169.6,443.6z"/>
	<path id="Ellipse_3" class="st10" d="M170.7,449.5c1.2,0,2.2,1,2.2,2.2s-1,2.2-2.2,2.2s-2.2-1-2.2-2.2S169.5,449.5,170.7,449.5
		L170.7,449.5z"/>
	<path id="Ellipse_3_copy" class="st10" d="M149.3,449.5c1.2,0,2.2,1,2.2,2.2s-1,2.2-2.2,2.2s-2.2-1-2.2-2.2S148,449.5,149.3,449.5
		L149.3,449.5z"/>
	<path id="glasses" class="st2" d="M179.3,441c-0.1,1-0.2,2.3-0.4,3.4c-0.7,3.4-3.5,6.5-8.5,6.8s-9.1-2.1-9.4-5.5
		c0-0.6-0.1-1.2-0.2-1.9c-0.7-0.4-1.5-0.4-2.1,0c-0.1,0.6-0.2,1.3-0.2,1.9c-0.2,3.4-4.4,5.9-9.4,5.5s-7.8-3.5-8.5-6.8
		c-0.2-1.1-0.3-2.4-0.4-3.4h-0.7l0.1-1.4h0.2l4.5,0.3l3.8,0.3l3.8,0.3l5.9,0.4c0.3,0,0.7,0.2,0.9,0.5c0.8,0.4,1.7,0.4,2.5,0
		c0.2-0.3,0.5-0.5,0.9-0.5l5.9-0.4l3.8-0.3l3.8-0.3l4.5-0.3h0.2l0.1,1.4H179.3z M156,442.5l-11.6-0.8c-1.5-0.1-2.1,1.6-2.1,2.9
		c-0.2,2.7,2.9,5.2,6.8,5.5s7.3-1.7,7.5-4.4C156.7,444.3,157.2,443.5,156,442.5z M177,444.5c-0.1-1.3-0.6-3-2.1-2.9l-11.5,0.8
		c-1.1,1-0.7,1.8-0.6,3.1c0.2,2.7,3.6,4.7,7.5,4.4s7.1-2.7,6.9-5.5H177V444.5z"/>
	<path id="Shape_26" class="st2" d="M141,428.2l6.5-8.2l5.9-2.8l7.9-1.2l9,0.5l12.1,12.6l-3.3,11.9c-0.7-3.5-2.3-6.8-4.8-9.4
		c-3.8-3.9-6.2-4.8-6.2-4.8s-1.4,5.7-10.9,5.5c-16.9-0.4-16.2,11.7-16.8,12.7c-0.1,0.1-0.1-5-0.1-5L141,428.2z"/>
	<path id="Shape_16-2" class="st2" d="M55.1,194.9c-2.1-2-1-7.3-1-7.3s0.1-0.4,0.3-1c1.3-3.6,6.9-15.4,23.2-8.7l-4.1,1.1
		c0,0,13.2,0.7,13.2,22v50.2c0,0-10,8.9-22.6-5.9S55,208.4,55,208.4S57.2,196.9,55.1,194.9z"/>
	<path id="Rounded_Rectangle_7-2" class="st2" d="M46.6,191.2c14.9,0,27,12.1,27,27v5.6c0,14.9-12.1,27-27,27s-27-12.1-27-27v-5.6
		C19.5,203.3,31.6,191.2,46.6,191.2C46.5,191.2,46.5,191.2,46.6,191.2z"/>
	<path id="body-bg-flat_copy-2" class="st7" d="M11.3,294.1c0,0-1.7-22.7,19.7-24.9h9.6v-4.4c0,0,6.8,2.9,13.6,0.3l0.2,4.1h11.2
		c0,0,19.2,0.8,18.4,25.1L11.3,294.1z"/>
	<path id="Rounded_Rectangle_13-2" class="st8" d="M83.9,295H10.6l0.4-5.9c0.7-11.6,9.8-20.5,20.3-20.5h8v1.2h-7.4
		c-10.1,0-18.9,8.5-19.5,19.7l-0.2,4.1h71.6l-0.1-4.1c-0.7-11.2-9.5-19.7-19.6-19.7h-9.8v-1.2h10.4c10.5,0,19.6,8.9,20.3,20.5
		l0.3,5.9H83.9z"/>
	<path id="Ellipse_4-2" class="st2" d="M47,282c-5.8,0-10.4-4.7-10.4-10.5c0-1,0.1-1.9,0.4-2.9h3v1.2h-2.2c-0.9,5.1,2.4,10,7.5,10.9
		s10-2.4,10.9-7.5c0.2-1.1,0.2-2.3,0-3.4H54v-1.2h3c1.6,5.5-1.6,11.3-7.1,12.9C48.9,281.9,48,282,47,282z"/>
	<path id="neck-2" class="st2" d="M40.6,264.3v6.7c0,3.5,2.8,6.2,6.2,6.2s6.2-2.8,6.2-6.2v-6.5c0.4-0.1,0.7-0.2,1.1-0.4v6.9
		c0,4.1-3.3,7.4-7.4,7.4s-7.4-3.3-7.4-7.4v-7.1C39.8,264.1,40.2,264.2,40.6,264.3z"/>
	<path id="_1_copy_4-2" class="st7" d="M47.1,199c13.7,0,24,12,23.5,25.7l-0.8,18.6c-2.1,12.6-10.8,21.8-22.6,23
		c-11.5-1.2-20.4-10.4-22.8-23l-0.8-18.6C23.1,211,33.5,199,47.1,199z"/>
	<path id="_1_line-2" class="st9" d="M72.1,223.9l-0.8,19.4c-2.3,13.2-11.5,22.7-24.1,24c-12.2-1.3-21.7-10.8-24.3-24l-0.8-19.4
		c-0.6-14.3,10.5-26.9,25-26.9S72.7,209.6,72.1,223.9z M47.1,198.6c-13.7,0-24,12-23.5,25.7l0.8,18.6c2.4,12.6,11.3,21.8,22.8,23
		c11.8-1.3,20.5-10.4,22.6-23l0.8-18.6C71.1,210.5,60.8,198.6,47.1,198.6L47.1,198.6z"/>
	<path id="usta-2" class="st2" d="M58.7,250c-2,1.7-6.4,3.3-11.5,3.3s-9.6-1.6-11.5-3.3c0,0-0.2-0.6,0.1-0.9
		c0.2-0.2,0.5-0.3,0.8-0.2c2,1.7,5.5,3.1,10.7,3.1s8.7-1.4,10.7-3.1c0,0,0.5-0.2,0.7,0.1C58.9,249.2,58.9,249.7,58.7,250z"/>
	<path id="_--2" class="st2" d="M43.7,255.9h6.9v1.1h-6.9V255.9z"/>
	<path id="Shape_11_copy-2" class="st7" d="M22.3,226.2c-0.2-0.2-0.5-0.3-0.8-0.4c-0.3-0.1-0.6-0.1-0.9-0.2h-0.3H20
		c-0.2,0-0.4,0.1-0.6,0.1c-1,0.3-1.7,1-2.1,1.9c-0.3,0.7-0.4,1.5-0.4,2.3c0,0.2,0,0.5,0,0.7s0,0.5,0,0.8c0,0.6,0.1,1.1,0.2,1.8
		c0,1.4,0.2,2.9,0.6,4.2c0.7,2.2,2.2,4.9,5.2,5.7C22.7,237.6,22.6,231.9,22.3,226.2L22.3,226.2z"/>
	<path id="Shape_3-2" class="st2" d="M22.6,226.5c0,0-5.1-1.6-4.9,3.7c0,0,0.8,7.6,1.1,8.3c0,0,2,4.4,5.3,4.6l0,0v1.4
		c-3.7-0.7-6.5-3.7-6.9-7.5l-0.9-6.1c0,0-0.7-8,6-6l0,0L22.6,226.5"/>
	<path id="Shape_4-2" class="st2" d="M21,237c-0.2,0.1-0.3,0.2-0.5,0.2s-0.4-0.1-0.5-0.2l-0.5-5.3c0,0,0.7-2.6,3.8-1.2l0.1,1.5
		c0,0-2.7-1-2.6,0.2S21,237,21,237z"/>
	<path id="Shape_11_copy_1-2" class="st7" d="M72.1,226.2c0.2-0.2,0.5-0.3,0.8-0.4c0.3-0.1,0.6-0.1,0.9-0.2H74h0.3
		c0.2,0,0.4,0.1,0.6,0.1c1,0.3,1.8,1,2.1,1.9c0.3,0.7,0.4,1.4,0.4,2.2c0,0.2,0,0.5,0,0.7s0,0.5,0,0.8c0,0.6-0.1,1.1-0.2,1.8
		c0,1.4-0.2,2.9-0.6,4.2c-0.7,2.2-2.2,4.9-5.2,5.7C71.8,237.6,71.8,231.9,72.1,226.2L72.1,226.2z"/>
	<path id="Shape_3_1-2" class="st2" d="M71.5,226.5c0,0,5.1-1.6,4.9,3.7c0,0-0.8,7.6-1.1,8.3c0,0-2,4.4-5.3,4.6l0,0v1.4
		c3.7-0.7,6.6-3.7,7-7.4l0.9-6.1c0,0,0.7-8-6-6l0,0L71.5,226.5"/>
	<path id="Shape_4_1-2" class="st2" d="M73.2,237c0.2,0.1,0.3,0.2,0.5,0.2s0.4-0.1,0.5-0.2l0.5-5.3c0,0-0.7-2.6-3.8-1.2l-0.1,1.5
		c0,0,2.7-1,2.7,0.2S73.2,237,73.2,237z"/>
	<path id="new_vector_shape_done-2" class="st2" d="M49.1,236.6h0.4c0.7,1.3,1.2,2.7,1.5,4.1c0.1,0.5,0.1,1-0.1,1.5
		c-0.4,1.1-1.7,1.1-2.8,1.6c-0.3,0.2-0.6,0.3-0.9,0.4c-0.2-0.2-0.5-0.2-0.7-0.6c-0.3-0.4,0.1-0.6,0.4-0.8c0.5-0.3,2.2-0.6,2.4-1.1
		c0.2-0.3,0.1-1.1,0-1.4c-0.2-0.7-0.4-1.3-0.6-2c-0.2-0.4-0.5-0.9-0.3-1.4C48.7,236.8,48.9,236.7,49.1,236.6z"/>
	<path id="Rounded_Rectangle_8-2" class="st2" d="M34.2,228.3h1.5c0.8,0.1,1.4,0.8,1.3,1.7c-0.1,0.7-0.6,1.2-1.3,1.3h-1.5
		c-0.8-0.1-1.4-0.8-1.3-1.7C32.9,228.9,33.5,228.4,34.2,228.3z"/>
	<path id="Rounded_Rectangle_8_copy-2" class="st2" d="M58.7,228.3h1.5c0.8,0.1,1.4,0.8,1.3,1.7c-0.1,0.7-0.6,1.2-1.3,1.3h-1.5
		c-0.8-0.1-1.4-0.8-1.3-1.7C57.5,228.9,58,228.4,58.7,228.3z"/>
	<path id="Ellipse_3-2" class="st10" d="M60.1,235.4c1.5,0,2.7,1.2,2.7,2.7s-1.2,2.7-2.7,2.7s-2.7-1.2-2.7-2.7
		S58.7,235.4,60.1,235.4L60.1,235.4z"/>
	<path id="Ellipse_3_copy-2" class="st10" d="M34.1,235.4c1.5,0,2.7,1.2,2.7,2.7s-1.2,2.7-2.7,2.7s-2.7-1.2-2.7-2.7
		S32.6,235.4,34.1,235.4L34.1,235.4z"/>
	<path id="glasses-2" class="st2" d="M70.6,225.1c-0.2,1.2-0.3,2.8-0.5,4.1c-0.8,4.1-4.3,7.9-10.3,8.3s-11.1-2.6-11.4-6.7
		c0-0.7-0.2-1.5-0.3-2.3c-0.8-0.5-1.8-0.5-2.6,0c-0.1,0.8-0.2,1.6-0.3,2.3c-0.3,4.2-5.4,7.2-11.4,6.7s-9.5-4.2-10.3-8.3
		c-0.3-1.4-0.4-2.9-0.5-4.1l-0.9-0.1l0.1-1.7h0.2l5.5,0.4l4.6,0.3l4.6,0.3l7.2,0.5c0.4,0,0.8,0.3,1,0.6c0.9,0.4,2.1,0.4,3,0
		c0.2-0.4,0.6-0.6,1.1-0.6l7.2-0.5l4.6-0.3l4.6-0.3l5.4-0.4h0.2l0.1,1.7L70.6,225.1z M42.3,227l-14.1-1c-1.8-0.2-2.5,1.9-2.6,3.5
		c-0.2,3.3,3.5,6.3,8.3,6.6s8.9-2.1,9.1-5.4C43.2,229.1,43.7,228.1,42.3,227z M67.9,229.4c-0.1-1.6-0.8-3.6-2.6-3.5l-14,1
		c-1.3,1.2-0.8,2.1-0.7,3.7c0.2,3.3,4.3,5.7,9.1,5.4S68.1,232.7,67.9,229.4L67.9,229.4z"/>
	<path id="Shape_26-2" class="st2" d="M24,209.5l7.9-10l7.1-3.4l9.6-1.5l11,0.6l14.8,15.3l-4,14.4c-0.8-4.3-2.8-8.2-5.8-11.4
		c-4.5-4.7-7.5-5.9-7.5-5.9s-1.7,7-13.2,6.7C23.1,214.1,24,228.7,23.3,230c-0.1,0.1-0.1-6.1-0.1-6.1L24,209.5z"/>
	<path id="body-bg-flat" class="st7" d="M364.5,286.9c0,0-2.5-22.2,19.3-24.6h9.3V258c0,0,6.6,2.8,13.2,0.3l0.2,4h10.9
		c0,0,19,1.9,17.8,24.6H364.5z"/>
	<path id="Rounded_Rectangle_13_copy" class="st8" d="M435,287.3h-71.2l0.3-5.8c0.7-11.3,9.5-19.9,19.7-19.9h7.7v1.1h-7.1
		c-9.8,0-18.4,8.3-19,19.1l-0.2,4h69.6l-0.1-4c-0.6-10.9-9.2-19.1-19-19.1h-9.5v-1.1h10.1c10.2,0,19.1,8.6,19.7,19.9l0.3,5.8H435z"
		/>
	<path id="neck_copy_5" class="st11" d="M394.1,257.5v6.5c0.1,3.4,3,6,6.3,5.8c3.2-0.1,5.7-2.7,5.8-5.8v-6.3c0.4-0.1,0.7-0.2,1-0.4
		v6.8c0.3,3.9-2.7,7.4-6.6,7.7c-3.9,0.3-7.4-2.7-7.7-6.6c0-0.4,0-0.7,0-1.1v-7C393.4,257.2,393.8,257.3,394.1,257.5z"/>
	<path id="Rounded_Rectangle_14" class="st2" d="M393,269.9c0.4,0,0.7,0.3,0.7,0.7v10.3c0,0.4-0.3,0.7-0.7,0.7
		c-0.4,0-0.7-0.3-0.7-0.7l0,0v-10.3C392.3,270.2,392.6,269.9,393,269.9z"/>
	<path id="Rounded_Rectangle_15" class="st2" d="M407.2,269.8c0.4,0,0.7,0.3,0.7,0.7l0,0v6.4c0,0.4-0.3,0.7-0.7,0.7
		c-0.4,0-0.7-0.3-0.7-0.7v-6.4C406.5,270.1,406.8,269.8,407.2,269.8L407.2,269.8z"/>
	<path id="Rounded_Rectangle_16" class="st11" d="M393,280.8c0.2,0,0.4,0.2,0.4,0.4v2.6c0,0.2-0.2,0.3-0.4,0.3
		c-0.2,0-0.3-0.1-0.3-0.3v-2.6C392.6,280.9,392.7,280.8,393,280.8z"/>
	<path id="Rounded_Rectangle_16_copy" class="st11" d="M407.3,276.9c0.2,0,0.4,0.2,0.4,0.4v2.6c0,0.2-0.1,0.4-0.3,0.4
		c-0.2,0-0.4-0.1-0.4-0.3v-0.1v-2.6C406.9,277.1,407.1,276.9,407.3,276.9z"/>
	<path id="Shape_1_copy" class="st12" d="M389,254.9l-6.6,1.5c0,0-8.1,1.8-2.7,7.3s19.4,6.4,19.4,6.4s-3.7-1.7-5.2-4.2l-0.5-8.8
		L389,254.9z"/>
	<path id="Shape_1_copy_2" class="st2" d="M399.2,270.7c-0.4,0.5-12,0.2-20-6.8c-5.8-5,2.9-8,2.9-8l6.4-1.5l5.5,2.8l0.4,8.5
		C396.8,269.4,399.8,269.8,399.2,270.7z M393.4,266.2l-0.6-8.9l-3.4-1.9L383,257c0,0-7.7,1.6-2.8,6.2c5.3,5,15.1,6.3,16.1,6.2
		S395.8,269.8,393.4,266.2L393.4,266.2z"/>
	<path id="Shape_1_copy_4" class="st12" d="M411.4,255.1l6.6,1.5c0,0,8.1,1.9,2.7,7.3s-19.3,6.5-19.3,6.5s3.7-1.8,5.2-4.2l0.5-8.8
		L411.4,255.1z"/>
	<path id="Shape_1_copy_6" class="st2" d="M401.3,270.9c0.4,0.5,12,0.2,20-6.8c5.8-5.1-2.9-8-2.9-8l-6.3-1.5l-5.5,2.8l-0.4,8.5
		C403.6,269.6,400.6,270,401.3,270.9z M407,266.4l0.6-8.9l3.4-1.9l6.4,1.6c0,0,7.7,1.6,2.8,6.2c-5.3,5-15.1,6.3-16.1,6.2
		S404.7,270,407,266.4L407,266.4z"/>
	<path id="_2_copy_5" class="st7" d="M400.7,191.7c13,0,23.3,12.2,23,26.8l-0.4,15.6c-0.3,13.8-10.4,24.7-22.6,24.7
		s-22.3-10.9-22.7-24.7l-0.4-15.6C377.4,203.9,387.6,191.7,400.7,191.7z"/>
	<path id="_2_line" class="st2" d="M424.7,218.1l-0.4,16.2c-0.3,14.3-10.9,25.7-23.7,25.7s-23.4-11.3-23.7-25.7l-0.4-16.2
		c-0.4-15.2,10.4-27.9,24.1-27.9S425,202.8,424.7,218.1z M400.6,191.9c-12.9,0-23,12.1-22.7,26.6l0.4,15.4
		c0.3,13.7,10.3,24.5,22.3,24.5s22-10.8,22.3-24.5l0.4-15.4C423.6,203.9,413.4,191.9,400.6,191.9z"/>
	<path id="Shape_1" class="st2" d="M422.6,243.4c-0.3,1.5-4.4,14.8-3.6,9s-7.1,5.2-7.1,5.2c-1.4,1.5-7.3,4.9-7.3,4.9V261l-4.3,1.7
		l-1.9-1.7l-0.2,1.7c-0.6-0.9-12.2-8.7-12.2-8.7s2,3.6,0.4,1.7l-0.2-0.2c-1.5-2.2-2.9-4.6-4.1-7.1l-0.4,3.5
		c-3.8-7.4-3.6-16.6-3.6-16.6l-0.6-19.2h1.7l0.6,13.7l2.8,4.6c1.8,2.6,6.6,1.4,6.6,1.4c14,9.7,22.9-0.6,22.9-0.6s6.1,1.4,7.9,0.6
		s2.1-19.8,2.1-19.8h1.5C423.7,216.4,422.9,241.9,422.6,243.4z M412.5,244.9c-0.3-3.7-2.5-3.4-2.5-3.4c-3.1,1-6.3,1.7-9.6,2.1l0,0
		c-3.2-0.5-6.4-1.2-9.5-2.1c0,0-2.2-0.3-2.5,3.4c-0.5,1.8,0.4,3.7,2.1,4.4l3.8,2.1c0,0,2.6,0.8,2.5-2.3c0,0-0.3-0.4,1.3-0.8h2.3v0.1
		h2.3c1.5,0.4,1.3,0.9,1.3,0.9c-0.1,3.1,2.5,2.3,2.5,2.3l3.8-2.1C412.1,248.6,413,246.7,412.5,244.9z"/>
	<path id="usta-3" class="st2" d="M411.9,243.5c-1.9,1.6-6.2,3.2-11.2,3.2s-9.3-1.6-11.2-3.2c0,0-0.2-0.5,0.1-0.8
		c0.2-0.2,0.5-0.3,0.8-0.2c1.9,1.6,5.4,3,10.4,3s8.5-1.4,10.4-3c0,0,0.5-0.2,0.7,0.1C412,242.8,412.1,243.2,411.9,243.5z"/>
	<path id="_--3" class="st11" d="M397.3,249.2h6.7v1h-6.7V249.2z"/>
	<path id="Shape_11_copy-3" class="st7" d="M376.5,220.4c-0.2-0.2-0.5-0.3-0.7-0.4c-0.3-0.1-0.6-0.1-0.9-0.1h-0.3h-0.3
		c-0.2,0-0.4,0.1-0.6,0.1c-0.9,0.3-1.7,1-2,1.9c-0.3,0.7-0.4,1.4-0.4,2.1c0,0.2,0,0.5,0,0.7s0,0.5,0,0.8c0,0.5,0.1,1.1,0.2,1.7
		c0,1.4,0.2,2.8,0.6,4.1c0.6,2.1,2.2,4.8,5,5.5C376.8,231.4,376.8,225.9,376.5,220.4L376.5,220.4z"/>
	<path id="Shape_3-3" class="st2" d="M376.8,220.6c0,0-5-1.5-4.8,3.6c0,0,0.7,7.4,1.1,8.1c0,0,2,4.3,5.2,4.5l0,0v1.4
		c-3.6-0.7-6.3-3.6-6.7-7.2l-0.9-5.9c0,0-0.7-7.8,5.8-5.8l0,0L376.8,220.6"/>
	<path id="Shape_4-3" class="st2" d="M375.2,230.9c-0.2,0.1-0.3,0.2-0.5,0.2s-0.4-0.1-0.5-0.2l-0.5-5.1c0,0,0.7-2.5,3.7-1.2l0.1,1.5
		c0,0-2.6-0.9-2.6,0.2S375.2,230.9,375.2,230.9z"/>
	<path id="Shape_11_copy_1-3" class="st7" d="M424.6,220.4c0.2-0.2,0.5-0.3,0.7-0.4c0.3-0.1,0.6-0.1,0.9-0.1h0.3h0.3
		c0.2,0,0.4,0.1,0.6,0.1c0.9,0.3,1.7,1,2,1.9c0.3,0.7,0.4,1.4,0.4,2.1c0,0.2,0,0.5,0,0.7s0,0.5,0,0.8c0,0.5-0.1,1.1-0.2,1.7
		c0,1.4-0.2,2.8-0.6,4.1c-0.6,2.1-2.2,4.8-5,5.5C424.3,231.5,424.3,225.9,424.6,220.4L424.6,220.4z"/>
	<path id="Shape_3_1-3" class="st2" d="M424.3,220.7c0,0,5-1.5,4.8,3.6c0,0-0.7,7.4-1.1,8.1c0,0-2,4.3-5.2,4.5l0,0v1.4
		c3.6-0.7,6.3-3.6,6.8-7.2l0.9-5.9c0,0,0.7-7.8-5.8-5.8l0,0L424.3,220.7"/>
	<path id="Shape_4_1-3" class="st2" d="M425.9,230.9c0.2,0.1,0.3,0.2,0.5,0.2s0.4-0.1,0.5-0.2l0.5-5.1c0,0-0.7-2.5-3.7-1.2l-0.1,1.4
		c0,0,2.6-0.9,2.6,0.2S425.9,230.9,425.9,230.9z"/>
	<path id="new_vector_shape_done-3" class="st2" d="M402.5,230.5h0.4c0.7,1.2,1.2,2.6,1.5,4c0.1,0.5,0.1,1-0.1,1.5
		c-0.4,1.1-1.6,1.1-2.7,1.6c-0.3,0.2-0.5,0.3-0.8,0.4c-0.2-0.2-0.5-0.2-0.6-0.6c-0.3-0.4,0.1-0.6,0.4-0.8c0.5-0.3,2.1-0.6,2.3-1
		c0.2-0.3,0.1-1.1,0-1.4c-0.1-0.7-0.3-1.3-0.6-2c-0.2-0.4-0.5-0.9-0.3-1.4C402.1,230.7,402.4,230.6,402.5,230.5z"/>
	<path id="Rounded_Rectangle_8-3" class="st2" d="M388,222.4h1.5c0.8-0.1,1.5,0.5,1.6,1.3s-0.5,1.5-1.3,1.6c-0.1,0-0.2,0-0.2,0H388
		c-0.8,0.1-1.5-0.5-1.6-1.3s0.5-1.5,1.3-1.6C387.8,222.4,387.9,222.4,388,222.4z"/>
	<path id="Rounded_Rectangle_8_copy-3" class="st2" d="M411.9,222.4h1.5c0.8-0.1,1.5,0.5,1.6,1.3s-0.5,1.5-1.3,1.6
		c-0.1,0-0.2,0-0.2,0H412c-0.8-0.1-1.4-0.8-1.3-1.6C410.6,223.1,411.2,222.5,411.9,222.4z"/>
	<path id="Ellipse_3-3" class="st10" d="M413.3,229.4c1.4,0,2.6,1.2,2.6,2.6s-1.2,2.6-2.6,2.6s-2.6-1.2-2.6-2.6l0,0
		C410.7,230.5,411.8,229.4,413.3,229.4z"/>
	<path id="Ellipse_3_copy-3" class="st10" d="M387.9,229.4c1.4,0,2.6,1.2,2.6,2.6s-1.2,2.6-2.6,2.6s-2.6-1.2-2.6-2.6l0,0
		C385.3,230.5,386.5,229.4,387.9,229.4z"/>
	<path id="glasses-3" class="st2" d="M423.4,219.3c-0.1,1.2-0.3,2.7-0.5,4c-0.8,4-4.2,7.6-10,8s-10.8-2.5-11-6.5
		c0-0.7-0.2-1.4-0.3-2.2c-0.8-0.5-1.8-0.5-2.5,0c-0.1,0.8-0.2,1.6-0.3,2.2c-0.3,4-5.2,7-11.1,6.6s-9.2-4.1-10-8.1
		c-0.3-1.3-0.4-2.8-0.5-4l-0.9-0.1l0.1-1.7h0.2l5.3,0.4l4.5,0.3l4.5,0.3l7,0.5c0.4,0,0.8,0.2,1,0.6c0.9,0.4,2,0.4,2.9,0
		c0.2-0.3,0.6-0.6,1-0.6l7-0.5l4.5-0.3l4.5-0.3l5.3-0.4h0.2l0.1,1.7L423.4,219.3z M396,221.1l-13.7-1c-1.8-0.1-2.4,1.9-2.5,3.4
		c-0.2,3.2,3.4,6.1,8,6.5s8.6-2,8.9-5.2C396.8,223.2,397.3,222.3,396,221.1z M420.9,223.5c-0.1-1.5-0.7-3.5-2.5-3.4l-13.6,1
		c-1.3,1.1-0.8,2.1-0.7,3.6c0.2,3.2,4.2,5.6,8.9,5.2S421,226.7,420.9,223.5L420.9,223.5z"/>
	<path id="Shape_7" class="st2" d="M377.8,227.2c0,0,2.9-12.8,5.5-16.3s4.7-4.3,5.9-4.4s10.1,2.5,22.4-0.5c3,0,5.8,1.9,6.9,4.7
		c0,0,4.3,7.8,5,15.5h0.8c0,0,1.8-13.6,1-21.7s-11.3-12-11.3-12l2.3-1.7c0,0-5.4-1.7-7.5-0.7l1.7-3.4c0,0-10.9,0-17,4.9l0.2-2.5
		c0,0-21.5,3.3-17,37.7L377.8,227.2z"/>
	<path id="body-bg-flat-2" class="st7" d="M334.4,58.8c0,0-1.4-12.3,10.6-13.6h5.2v-2.4c2.3,0.9,4.9,1,7.3,0.2l0.1,2.2h6
		c0,0,10.5,1,9.9,13.6L334.4,58.8z"/>
	<path id="Rounded_Rectangle_13_copy-2" class="st8" d="M373.4,59.1H334l0.2-3.2c0.4-6.2,5.3-11,10.9-11h4.3v0.6h-3.9
		c-5.4,0-10.2,4.6-10.5,10.6l-0.1,2.2h38.5l-0.1-2.2c-0.4-6-5.1-10.6-10.5-10.6h-5.3v-0.6h5.6c5.6,0,10.5,4.8,10.9,11l0.2,3.2
		C374.2,59.1,373.4,59.1,373.4,59.1z"/>
	<path id="neck_copy_5-2" class="st11" d="M350.8,42.6v3.6c0,1.9,1.5,3.4,3.4,3.4s3.4-1.5,3.4-3.4v-3.5l0.6-0.2v3.7
		c0.3,2.2-1.3,4.2-3.5,4.5s-4.2-1.3-4.5-3.5c0-0.3,0-0.7,0-1v-3.8L350.8,42.6z"/>
	<path id="Rounded_Rectangle_14-2" class="st2" d="M350.1,49.5c0.2,0,0.4,0.2,0.4,0.4l0,0v5.7c0,0.2-0.1,0.4-0.3,0.4
		c-0.2,0-0.4-0.1-0.4-0.3v-0.1v-5.7C349.7,49.6,349.9,49.5,350.1,49.5z"/>
	<path id="Rounded_Rectangle_15-2" class="st2" d="M358,49.4c0.2,0,0.4,0.2,0.4,0.4l0,0v3.5c0,0.2-0.1,0.4-0.3,0.5s-0.4-0.1-0.5-0.3
		v-0.1v-3.5C357.6,49.6,357.8,49.4,358,49.4z"/>
	<path id="Rounded_Rectangle_16-2" class="st11" d="M350.1,55.5c0.1,0,0.2,0.1,0.2,0.2l0,0v1.5c0,0.1-0.1,0.2-0.2,0.2
		s-0.2-0.1-0.2-0.2v-1.4C349.9,55.6,350,55.5,350.1,55.5L350.1,55.5z"/>
	<path id="Rounded_Rectangle_16_copy-2" class="st11" d="M358,53.3c0.1,0,0.2,0.1,0.2,0.2l0,0V55c0,0.1-0.1,0.2-0.2,0.2
		s-0.2-0.1-0.2-0.2l0,0v-1.5C357.8,53.4,357.9,53.3,358,53.3L358,53.3z"/>
	<path id="Shape_1_copy-2" class="st12" d="M347.9,41.2l-3.7,0.8c0,0-4.5,1-1.5,4s10.7,3.6,10.7,3.6c-1.1-0.5-2.1-1.3-2.9-2.3
		l-0.3-4.9L347.9,41.2z"/>
	<path id="Shape_1_copy_2-2" class="st2" d="M353.6,49.9c-0.2,0.3-6.6,0.1-11.1-3.8c-3.2-2.8,1.6-4.4,1.6-4.4l3.5-0.8l3.1,1.6
		l0.2,4.7C352.2,49.2,353.9,49.4,353.6,49.9z M350.4,47.4l-0.4-4.9l-1.9-1l-3.5,0.9c0,0-4.3,0.9-1.6,3.4c2.9,2.7,8.4,3.5,8.9,3.4
		S351.7,49.4,350.4,47.4z"/>
	<path id="Shape_1_copy_4-2" class="st12" d="M360.3,41.3l3.7,0.8c0,0,4.5,1,1.5,4.1s-10.7,3.6-10.7,3.6c1.1-0.5,2.1-1.3,2.9-2.3
		l0.3-4.9L360.3,41.3z"/>
	<path id="Shape_1_copy_6-2" class="st2" d="M354.7,50c0.2,0.3,6.6,0.1,11.1-3.8c3.2-2.8-1.6-4.4-1.6-4.4l-3.5-0.8l-3.1,1.6
		l-0.2,4.7C356,49.3,354.3,49.5,354.7,50z M357.9,47.5l0.4-4.9l1.9-1l3.5,0.9c0,0,4.3,0.9,1.6,3.4c-2.9,2.8-8.4,3.5-8.9,3.4
		S356.6,49.5,357.9,47.5z"/>
	<path id="_2_copy_5-2" class="st7" d="M354.4,6.2c7.2,0,12.9,6.7,12.7,14.8l-0.2,8.6c-0.2,7.6-5.8,13.6-12.5,13.6
		s-12.3-6-12.5-13.6l-0.2-8.6C341.5,13,347.2,6.2,354.4,6.2z"/>
	<path id="_2_line-2" class="st2" d="M367.7,20.8l-0.2,9c-0.2,7.9-6,14.2-13.1,14.2s-12.9-6.3-13.1-14.2l-0.2-9
		c-0.2-8.4,5.8-15.4,13.3-15.4S367.9,12.4,367.7,20.8z M354.3,6.3c-7.1,0-12.7,6.7-12.5,14.7l0.2,8.5c0.2,7.6,5.7,13.5,12.3,13.5
		s12.2-6,12.3-13.5l0.2-8.5C367,13,361.4,6.3,354.3,6.3z"/>
	<path id="Shape_1-2" class="st2" d="M366.5,34.8c-0.2,0.8-2.4,8.2-2,5s-3.9,2.9-3.9,2.9c-1.3,1-2.6,1.9-4,2.7v-0.8l-2.4,1l-1.1-1
		l-0.1,1c-0.3-0.5-6.8-4.8-6.8-4.8s1.1,2,0.2,1l-0.1-0.1c-0.9-1.2-1.6-2.5-2.3-3.9l-0.2,1.9c-1.3-2.9-2-6-2-9.2l-0.4-10.6h1l0.4,7.6
		l1.5,2.5c1,1.5,3.7,0.8,3.7,0.8c7.7,5.4,12.7-0.3,12.7-0.3s3.4,0.7,4.4,0.3s1.2-11,1.2-11h0.8C367.1,19.8,366.7,34,366.5,34.8z
		 M361,35.6c-0.2-2-1.4-1.9-1.4-1.9c-1.7,0.5-3.5,0.9-5.3,1.2l0,0c-1.8-0.3-3.5-0.7-5.2-1.2c0,0-1.2-0.2-1.4,1.8
		c-0.3,1,0.2,2,1.1,2.4l2.1,1.2c0,0,1.4,0.5,1.4-1.3c0,0-0.1-0.2,0.7-0.5h1.3l0,0h1.3c0.9,0.2,0.7,0.5,0.7,0.5
		c0,1.7,1.4,1.3,1.4,1.3l2.1-1.2C360.7,37.6,361.2,36.6,361,35.6z"/>
	<path id="usta-4" class="st2" d="M360.6,34.9c-3.8,2.4-8.6,2.4-12.4,0c0,0-0.1-0.3,0-0.5c0.1-0.1,0.3-0.1,0.4-0.1
		c3.5,2.2,8,2.2,11.5,0c0,0,0.3-0.1,0.4,0C360.7,34.4,360.7,34.7,360.6,34.9z"/>
	<path id="_--4" class="st11" d="M352.5,38h3.7v0.6h-3.7V38z"/>
	<path id="Shape_11_copy-4" class="st7" d="M341,22.1c-0.1-0.1-0.3-0.2-0.4-0.2c-0.2,0-0.3-0.1-0.5-0.1h-0.3l-0.3,0.1
		c-0.5,0.1-0.9,0.5-1.1,1c-0.1,0.4-0.2,0.8-0.2,1.2c0,0.1,0,0.2,0,0.4c0,0.1,0,0.3,0,0.4c0,0.3,0.1,0.6,0.1,1c0,0.8,0.1,1.5,0.3,2.3
		c0.3,1.4,1.4,2.6,2.8,3.1C341.2,28.2,341.2,25.1,341,22.1L341,22.1z"/>
	<path id="Shape_3-4" class="st2" d="M341.2,22.2c0,0-2.7-0.9-2.6,2c0,0,0.4,4.1,0.6,4.5c0,0,1.1,2.4,2.9,2.5l0,0V32
		c-2-0.4-3.5-2-3.7-4l-0.5-3.3c0,0-0.4-4.3,3.2-3.2l0,0L341.2,22.2"/>
	<path id="Shape_4-4" class="st2" d="M340.3,27.9c-0.1,0.1-0.2,0.1-0.3,0.1c-0.1,0-0.2-0.1-0.3-0.1l-0.3-2.9c0,0,0.4-1.4,2-0.7v0.8
		c0,0-1.5-0.5-1.4,0.1S340.3,27.9,340.3,27.9z"/>
	<path id="Shape_11_copy_1-4" class="st7" d="M367.6,22.1c0.1-0.1,0.3-0.2,0.4-0.2c0.2,0,0.3-0.1,0.5-0.1h0.3l0.3,0.1
		c0.5,0.1,0.9,0.5,1.1,1c0.1,0.4,0.2,0.8,0.2,1.2c0,0.1,0,0.2,0,0.4s0,0.3,0,0.4c0,0.3-0.1,0.6-0.1,1c0,0.8-0.1,1.5-0.3,2.3
		c-0.3,1.4-1.4,2.6-2.8,3.1C367.5,28.2,367.5,25.1,367.6,22.1L367.6,22.1z"/>
	<path id="Shape_3_1-4" class="st2" d="M367.5,22.2c0,0,2.8-0.9,2.7,2c0,0-0.4,4.1-0.6,4.5c0,0-1.1,2.4-2.9,2.5l0,0V32
		c2-0.4,3.5-2,3.7-4l0.5-3.3c0,0,0.4-4.3-3.2-3.2l0,0L367.5,22.2"/>
	<path id="Shape_4_1-4" class="st2" d="M368.4,27.9c0.1,0.1,0.2,0.1,0.3,0.1c0.1,0,0.2-0.1,0.3-0.1l0.3-2.9c0,0-0.4-1.4-2-0.7v0.8
		c0,0,1.5-0.5,1.4,0.1S368.4,27.9,368.4,27.9z"/>
	<path id="new_vector_shape_done-4" class="st2" d="M355.4,27.7h0.2c0.4,0.7,0.7,1.4,0.8,2.2c0,0.3,0,0.5-0.1,0.8
		c-0.2,0.6-0.9,0.6-1.5,0.9c-0.1,0.1-0.3,0.2-0.5,0.2c-0.1-0.1-0.3-0.1-0.4-0.3s0-0.4,0.2-0.4s1.2-0.3,1.3-0.6s0-0.6,0-0.8
		c-0.1-0.4-0.2-0.7-0.3-1.1c-0.1-0.2-0.3-0.5-0.2-0.8C355.2,27.8,355.3,27.7,355.4,27.7z"/>
	<path id="Rounded_Rectangle_8-4" class="st2" d="M347.4,23.2h0.8c0.4,0,0.8,0.4,0.8,0.8s-0.4,0.8-0.8,0.8h-0.8
		c-0.4,0-0.8-0.4-0.8-0.8S347,23.2,347.4,23.2z"/>
	<path id="Rounded_Rectangle_8_copy-4" class="st2" d="M360.6,23.2h0.8c0.4,0,0.8,0.4,0.8,0.8s-0.4,0.8-0.8,0.8h-0.8
		c-0.4,0-0.8-0.4-0.8-0.8C359.8,23.6,360.2,23.2,360.6,23.2L360.6,23.2z"/>
	<path id="Ellipse_3-4" class="st10" d="M361.4,27c0.8,0,1.4,0.6,1.4,1.5s-0.6,1.4-1.5,1.4c-0.8,0-1.4-0.6-1.4-1.4
		C359.9,27.6,360.6,27,361.4,27L361.4,27z"/>
	<path id="Ellipse_3_copy-4" class="st10" d="M347.3,27c0.8,0,1.4,0.6,1.4,1.5s-0.6,1.4-1.5,1.4c-0.8,0-1.4-0.6-1.4-1.4
		C345.9,27.6,346.5,27,347.3,27L347.3,27z"/>
	<path id="glasses-4" class="st2" d="M367,21.5c-0.1,0.7-0.1,1.5-0.3,2.2c-0.6,2.6-2.9,4.4-5.5,4.5c-3.2,0.2-6-1.4-6.1-3.6
		c0-0.4-0.1-0.8-0.2-1.2c-0.4-0.3-1-0.3-1.4,0c-0.1,0.4-0.1,0.9-0.2,1.2c-0.2,2.2-2.9,3.9-6.1,3.6c-2.7,0-5-1.9-5.5-4.5
		c-0.1-0.7-0.2-1.6-0.3-2.2h-0.5l0.1-0.9h0.1l2.9,0.2l2.5,0.2l2.5,0.2l3.9,0.3c0.2,0,0.4,0.1,0.6,0.3c0.5,0.2,1.1,0.2,1.6,0
		c0.1-0.2,0.3-0.3,0.6-0.3l3.9-0.3l2.5-0.2l2.5-0.2l2.9-0.2h0.1l0.1,0.9H367z M351.8,22.5l-7.6-0.5c-1-0.1-1.3,1-1.4,1.9
		c-0.1,1.8,1.9,3.4,4.5,3.6s4.8-1.1,4.9-2.9C352.2,23.6,352.5,23.1,351.8,22.5L351.8,22.5z M365.5,23.8c-0.1-0.9-0.4-2-1.4-1.9
		l-7.5,0.5c-0.7,0.6-0.5,1.1-0.4,2c0.1,1.8,2.3,3.1,4.9,2.9S365.7,25.6,365.5,23.8L365.5,23.8z"/>
	<path id="Shape_7-2" class="st2" d="M341.7,25.9c0,0,1.6-7.1,3-9s2.6-2.4,3.2-2.4c4.1,0.8,8.3,0.7,12.4-0.3c1.7,0,3.2,1,3.8,2.6
		c1.4,2.7,2.4,5.6,2.8,8.6h0.5c0,0,1-7.5,0.6-12s-6.3-6.7-6.3-6.7l1.3-1c0,0-3-0.9-4.2-0.4l0.9-1.9c0,0-6,0-9.4,2.7l0.1-1.4
		c0,0-11.9,1.8-9.4,20.9L341.7,25.9z"/>
</g>
<g id="BACKGROUND_1-2" class="st0">
	<path class="st1" d="M685.6,216.1h49.9c2.1,0,3.9,1.7,3.9,3.9v39.8c0,2.1-1.7,3.9-3.9,3.9h-49.9c-2.1,0-3.9-1.7-3.9-3.9V220
		C681.7,217.9,683.5,216.1,685.6,216.1z"/>
	<line class="st4" x1="681.7" y1="251.1" x2="739.3" y2="251.1"/>
	<circle class="st2" cx="710.5" cy="257.7" r="2.3"/>
	<rect x="703.6" y="263.7" class="st1" width="13.8" height="7.5"/>
	<path class="st1" d="M697.4,271.3h26.3c1.3,0,2.3,1,2.3,2.3v1.5c0,1.3-1,2.3-2.3,2.3h-26.3c-1.3,0-2.3-1-2.3-2.3v-1.5
		C695,272.3,696.1,271.3,697.4,271.3z"/>
	<path class="st1" d="M614.4,432.4c-1,0-1.9-0.4-2.6-1.1L600,419.5c-1.4-1.4-1.4-3.8,0-5.2s3.8-1.4,5.2,0l8.8,8.9l13.7-17.6
		c1.3-1.6,3.6-1.9,5.2-0.7c1.6,1.3,1.9,3.6,0.7,5.2l0,0l-16.2,21c-0.6,0.8-1.6,1.4-2.7,1.4L614.4,432.4L614.4,432.4z"/>
	<path class="st5" d="M658.8,379.5c-7.2,0-13.1,5.9-13.1,13.1l0,0c0,7.9,13.1,26.3,13.1,26.3s13.1-18.6,13.1-26.3
		C671.9,385.4,666,379.5,658.8,379.5L658.8,379.5z M658.8,396c-2.7,0-4.9-2.2-4.9-4.9s2.2-4.9,4.9-4.9s4.9,2.2,4.9,4.9
		S661.5,396,658.8,396L658.8,396z"/>
	<circle class="st1" cx="671.7" cy="302.5" r="25.5"/>
	<circle class="st1" cx="671.7" cy="302.5" r="18.7"/>
	<line class="st6" x1="671.7" y1="277" x2="671.7" y2="283.8"/>
	<line class="st6" x1="693.6" y1="289.4" x2="687.9" y2="293"/>
	<line class="st6" x1="655.4" y1="293.3" x2="649.7" y2="289.6"/>
	<line class="st6" x1="653" y1="285.2" x2="657.8" y2="290"/>
	<text transform="matrix(1 0 0 1 665.31 308.16)" class="st2 st13 st14">%</text>
	<text transform="matrix(1 0 0 1 665.31 308.16)" class="st15 st13 st14">%</text>
	<path class="st5" d="M678.8,373.8v3.6c0,3.3,2.6,5.9,5.9,5.9l0,0h38.6"/>
	<path class="st5" d="M689.9,373.8V330h38.6v48c0,2.9-2.4,5.3-5.3,5.3l0,0c-2.9,0-5.3-2.4-5.3-5.3v-4.2h-39.2"/>
	<line class="st6" x1="697" y1="340" x2="717.9" y2="340"/>
	<line class="st6" x1="697" y1="360.9" x2="717.9" y2="360.9"/>
	<line class="st6" x1="697" y1="353.9" x2="717.9" y2="353.9"/>
	<line class="st6" x1="697" y1="347" x2="711.2" y2="347"/>
	<path class="st5" d="M686,443.9l2.4,5.5c0.7,1.7,2.4,2.8,4.2,2.9c1.1-1.8,3.5-2.3,5.2-1.2c0.7,0.4,1.2,1,1.5,1.7l2.3,5.4
		c0.8,1.9-0.1,4.2-2,5l-1.2,0.5c-5.6,2.4-12.2-0.2-14.6-5.8l-7.2-16.6c-2.4-5.6,0.2-12.2,5.8-14.6l1.2-0.5c1.9-0.8,4.2,0.1,5,2
		l2.3,5.4c0.8,1.9,0,4.2-2,5c-0.7,0.3-1.5,0.4-2.3,0.2C685.6,440.2,685.3,442.2,686,443.9z"/>
	<path class="st5" d="M725.2,473.6H725l2.8,17.1l13.4-10.9C736.8,475.9,731.1,473.7,725.2,473.6z"/>
	<path class="st5" d="M701.6,493.9h19.3l-3.1-19.1C709.2,477.7,703,485,701.6,493.9z"/>
	<path class="st5" d="M733.6,493.9h13.2c-0.5-2.9-1.5-5.8-3-8.3L733.6,493.9z"/>
	<path class="st1" d="M744.4,447.7l2.4-0.1l-0.2-4.3l-2.7,0.1c-0.2-0.8-0.5-1.6-0.8-2.3l2.3-1.4l-2.2-3.7l-2.5,1.5
		c-0.5-0.6-1.1-1.1-1.7-1.6l1.5-2.4l-3.6-2.2l-1.6,2.5c-0.6-0.2-1.2-0.4-1.9-0.6v-2.6h-4.3v2.3c-0.6,0-1.3,0.1-1.9,0.3l-1-2.1
		l-3.9,1.8l0.8,1.8c-0.8,0.5-1.6,1-2.3,1.6l-1.6-1.2l-2.6,3.4l1.4,1c-0.5,0.8-0.9,1.7-1.3,2.6l-1.7-0.3l-0.7,4.2l1.5,0.2
		c0,0.3,0,0.5,0,0.8c0,0.7,0.1,1.5,0.2,2.2l-1.6,0.5l1.4,4.1l1.5-0.5c0.4,0.9,1,1.7,1.6,2.5l-1.2,1.3l3.1,2.9l1.2-1.2
		c0.8,0.5,1.6,1,2.5,1.4l-0.5,1.9l4.1,1.1l0.5-1.9c0.5,0.1,1,0.1,1.5,0.1c0.2,0,0.5,0,0.7,0l0.2,1.6l4.2-0.6l-0.3-1.8
		c0.9-0.3,1.8-0.7,2.6-1.2l1.1,1.5l3.4-2.5l-1.2-1.7c0.6-0.7,1.1-1.4,1.6-2.2l1.9,0.9l1.8-3.9l-2.2-1
		C744.3,449.4,744.4,448.6,744.4,447.7z M730.6,449.4c-1.4,0-2.5-1.1-2.5-2.5s1.1-2.5,2.5-2.5s2.5,1.1,2.5,2.5l0,0
		C733.1,448.3,732,449.4,730.6,449.4L730.6,449.4L730.6,449.4z"/>
	<circle class="st5" cx="708.3" cy="433.5" r="2.6"/>
	<circle class="st5" cx="747.8" cy="199.4" r="2.6"/>
	<circle class="st5" cx="664" cy="257.7" r="2.6"/>
	<circle class="st5" cx="656.9" cy="445.3" r="2.6"/>
	<circle class="st5" cx="641.7" cy="359.9" r="2.6"/>
	<line class="st6" x1="688.8" y1="409.1" x2="718.5" y2="409.1"/>
	<line class="st6" x1="699" y1="400" x2="717.3" y2="400"/>
	<line class="st6" x1="693.4" y1="484.9" x2="684.4" y2="484.9"/>
	<line class="st6" x1="724.4" y1="202" x2="715.4" y2="202"/>
	<line class="st6" x1="721.3" y1="297" x2="712.3" y2="297"/>
	<line class="st6" x1="752.7" y1="330" x2="743.7" y2="330"/>
	<line class="st6" x1="642" y1="347.5" x2="671.7" y2="347.5"/>
	<line class="st6" x1="652.2" y1="338.4" x2="670.6" y2="338.4"/>
	<line class="st6" x1="739.3" y1="272.6" x2="769" y2="272.6"/>
	<line class="st6" x1="749.5" y1="263.5" x2="767.8" y2="263.5"/>
	<circle class="st5" cx="734" cy="307.7" r="2.6"/>
	<path class="st1" d="M545.4,8.8h43.8c2.1,0,3.9,1.7,3.9,3.9v34.9c0,2.1-1.7,3.9-3.9,3.9h-43.8c-2.1,0-3.9-1.7-3.9-3.9V12.7
		C541.5,10.5,543.2,8.8,545.4,8.8z"/>
	<line class="st4" x1="541.5" y1="40.1" x2="593.1" y2="40.1"/>
	<path class="st2" d="M569.3,45.5c0.3,1.1-0.4,2.2-1.5,2.4c-1.1,0.3-2.2-0.4-2.4-1.5c-0.3-1.1,0.4-2.2,1.5-2.4c0.3-0.1,0.6-0.1,1,0
		C568.5,44.2,569.1,44.8,569.3,45.5z"/>
	<rect x="561.1" y="51.4" class="st1" width="12.4" height="6.7"/>
	<path class="st1" d="M555.8,58.2h23.1c1.3,0,2.3,1,2.3,2.3v0.9c0,1.3-1,2.3-2.3,2.3h-23.1c-1.3,0-2.3-1-2.3-2.3v-0.9
		C553.4,59.2,554.5,58.2,555.8,58.2z"/>
	<path class="st5" d="M630,11.2c-6.5,0-11.7,5.2-11.7,11.7c0,7,11.7,23.5,11.7,23.5s11.7-16.7,11.7-23.5
		C641.7,16.4,636.5,11.2,630,11.2L630,11.2z M630,25.9c-2.4,0-4.4-2-4.4-4.4s2-4.4,4.4-4.4s4.4,2,4.4,4.4
		C634.4,24,632.4,25.9,630,25.9L630,25.9z"/>
	<path class="st5" d="M654.4,68.8l2.1,5c0.7,1.5,2.1,2.5,3.8,2.6c1-1.6,3.1-2.1,4.7-1.1c0.6,0.4,1,0.9,1.3,1.5l2.1,4.8
		c0.7,1.7-0.1,3.7-1.8,4.5l-1.1,0.5c-5,2.1-10.9-0.2-13.1-5.2L646,66.5c-2.1-5,0.2-10.9,5.2-13.1l1.1-0.5c1.7-0.7,3.7,0.1,4.5,1.8
		l2.1,4.8c0.8,1.7,0,3.7-1.7,4.5c-0.7,0.3-1.4,0.4-2.1,0.2C654,65.5,653.7,67.3,654.4,68.8z"/>
	<path class="st5" d="M697.5,95.4L697.5,95.4l2.4,15.3l12-9.8C707.9,97.4,702.8,95.4,697.5,95.4z"/>
	<path class="st5" d="M676.4,113.6h17.2l-2.8-17.1C683.2,99,677.6,105.6,676.4,113.6z"/>
	<path class="st5" d="M706.8,113.6h11.8c-0.4-2.6-1.3-5.2-2.6-7.5L706.8,113.6z"/>
	<path class="st5" d="M697.5,138.4L697.5,138.4l-2.4-15.8l-13.1,9C686,135.9,691.6,138.4,697.5,138.4z"/>
	<path class="st5" d="M718.7,120.2h-17.2l2.8,17.1C711.8,134.8,717.4,128.2,718.7,120.2z"/>
	<polyline class="st6" points="676.2,119.3 673.8,124 678.5,126.5 	"/>
	<line class="st6" x1="676.1" y1="123.2" x2="693.3" y2="118.8"/>
	<path class="st1" d="M720,59.2l2.7-0.1l-0.2-4.8l-3.1,0.1c-0.3-0.9-0.6-1.8-1-2.6l2.6-1.5l-2.5-4.2l-2.8,1.7
		c-0.6-0.7-1.3-1.3-2-1.8l1.7-2.7l-4.1-2.5l-1.8,2.9c-0.7-0.3-1.4-0.5-2.1-0.7v-2.9h-4.8v2.6c-0.7,0-1.4,0.1-2.1,0.3l-1.1-2.4
		l-4.4,2l1,2c-0.9,0.5-1.8,1.1-2.6,1.8l-1.8-1.4l-2.9,3.9l1.5,1.3c-0.6,0.9-1.1,2-1.5,3l-2-0.3l-0.8,4.8l1.7,0.3c0,0.3,0,0.6,0,0.9
		c0,0.8,0.1,1.6,0.2,2.4l-1.8,0.6l1.5,4.6l1.7-0.6c0.5,1,1.1,2,1.8,2.8l-1.3,1.4l3.5,3.3l1.3-1.4c0.9,0.6,1.8,1.2,2.8,1.6l-0.6,2.1
		l4.7,1.3l0.6-2.2c0.6,0.1,1.1,0.1,1.7,0.1c0.3,0,0.5,0,0.8,0l0.3,1.8l4.8-0.7l-0.3-2.1c1-0.4,2-0.8,2.9-1.4l1.2,1.7l3.9-3l-1.4-1.9
		c0.7-0.8,1.3-1.6,1.8-2.5l2.1,1l2.1-4.4l-2.5-1.2C719.8,61.1,720,60.1,720,59.2z M704.4,61.2c-1.6,0-2.8-1.3-2.8-2.8
		c0-1.6,1.3-2.8,2.8-2.8s2.8,1.3,2.8,2.8S706,61.1,704.4,61.2L704.4,61.2z"/>
	<circle class="st5" cx="674.3" cy="59.5" r="2.3"/>
	<circle class="st5" cx="735.3" cy="106.2" r="2.3"/>
	<circle class="st5" cx="628.3" cy="70.1" r="2.3"/>
	<line class="st6" x1="656.9" y1="37.7" x2="683.5" y2="37.7"/>
	<line class="st6" x1="666" y1="29.5" x2="682.4" y2="29.5"/>
	<line class="st6" x1="661" y1="105.5" x2="652.9" y2="105.5"/>
	<line class="st6" x1="711.4" y1="146.6" x2="738" y2="146.6"/>
	<line class="st6" x1="720.5" y1="138.5" x2="736.9" y2="138.5"/>
	<circle class="st5" cx="67" cy="74.8" r="2.6"/>
	<path class="st1" d="M249.8,35.2c0,7.4-6,13.3-13.3,13.3s-13.3-6-13.3-13.3c0-4.7,2.4-11.2,6.1-15.3c0.2,0.1,0.4,0.1,0.7,0.1h13.1
		c0.2,0,0.5,0,0.7-0.1C247.4,24,249.8,30.5,249.8,35.2z"/>
	<text transform="matrix(1 0 0 1 232.6019 39.6747)" class="st2 st13 st16">$</text>
	<text transform="matrix(1 0 0 1 232.6019 39.6747)" class="st15 st13 st16">$</text>
	<path class="st5" d="M93.6,34.1v10.6c0,5-4.1,9.1-9.1,9.1l0,0l0.7,9.9l-13.6-9.9H60.9v-6.5c0-5.9-4.8-10.7-10.7-10.7H45v-2.4
		c0-5,4.1-9.1,9.1-9.1l0,0h30.5C89.6,25,93.6,29.1,93.6,34.1L93.6,34.1z"/>
	<line class="st6" x1="79.1" y1="32.8" x2="54.8" y2="32.8"/>
	<line class="st6" x1="85.3" y1="45.4" x2="67.9" y2="45.4"/>
	<line class="st6" x1="85.3" y1="39.1" x2="73" y2="39.1"/>
	<line class="st6" x1="63.3" y1="39.1" x2="57.2" y2="39.1"/>
	<path class="st17" d="M60.9,47.2v12.5c0,5.9-4.8,10.7-10.7,10.7l0,0H29.5L13.4,82.2l0.8-11.7c-5.9,0-10.7-4.8-10.7-10.7l0,0V47.2
		c0-5.9,4.8-10.7,10.7-10.7l0,0h36C56.1,36.5,60.9,41.3,60.9,47.2z"/>
	<line class="st6" x1="20.6" y1="45.8" x2="49.4" y2="45.8"/>
	<line class="st6" x1="13.4" y1="60.6" x2="33.9" y2="60.6"/>
	<line class="st6" x1="13.4" y1="53.2" x2="27.8" y2="53.2"/>
	<line class="st6" x1="39.3" y1="53.2" x2="48.4" y2="53.2"/>
	<circle class="st5" cx="19.6" cy="15.8" r="3.8"/>
	<circle class="st5" cx="138.9" cy="58" r="3.8"/>
	<circle class="st5" cx="167.7" cy="56.1" r="3.2"/>
	<polygon class="st5" points="168.7,36.4 138.1,36.4 133.5,16.7 173.5,16.7 	"/>
	<path class="st6" d="M139.2,57.5l4.6-4.6h25.6c2.2,0,3.9-1.8,3.9-4l0,0c0-2.2-1.8-3.9-3.9-3.9H140L130,2.9h-9.7"/>
	<circle class="st5" cx="110.8" cy="48.3" r="2.6"/>
	<line class="st6" x1="124.3" y1="37.1" x2="115.3" y2="37.1"/>
	<line class="st6" x1="115.3" y1="19.6" x2="106.3" y2="19.6"/>
	<rect x="49.7" y="472.6" class="st5" width="7.8" height="22.2"/>
	<rect x="64.8" y="466.6" class="st5" width="7.8" height="28.2"/>
	<rect x="79.9" y="460.2" class="st5" width="7.8" height="34.7"/>
	<rect x="95" y="450.4" class="st5" width="7.8" height="44.5"/>
	<path class="st6" d="M102.3,428.6c-12.5,14.8-24.3,28.1-52.7,28.1"/>
	<polyline class="st6" points="93.3,428.6 102.3,428.6 102.3,437.6 	"/>
	<path class="st1" d="M81.7,418.7l8.8-16c1.7-3.1,2.2-6.6,1.6-10l0,0c-1.4-7-7.5-12.1-14.7-12.1h-2.2c-7.2,0-13.3,5.1-14.7,12.1l0,0
		c-0.7,3.4-0.1,6.9,1.6,10l8.8,16H81.7z"/>
	<line class="st4" x1="76.2" y1="422.5" x2="76.2" y2="422.5"/>
	<path class="st4" d="M74.1,422.5v-22c0-1.5-1.2-2.7-2.7-2.7l0,0l0,0c-1.5,0-2.7,1.2-2.7,2.7l0,0v0.4c0,1.5,1.2,2.7,2.7,2.7l0,0h7.3
		"/>
	<path class="st4" d="M78.3,422.5v-22c0-1.5,1.2-2.7,2.7-2.7l0,0l0,0c1.5,0,2.7,1.2,2.7,2.7l0,0v0.4c0,1.5-1.2,2.7-2.7,2.7l0,0h-7.3
		"/>
	<path class="st5" d="M79.7,423.6h-6.9c-1.5,0-2.7-1.2-2.7-2.7l0,0c0-1.5,1.2-2.7,2.7-2.7h6.9c1.5,0,2.7,1.2,2.7,2.7l0,0
		C82.3,422.4,81.1,423.6,79.7,423.6z"/>
	<path class="st5" d="M79.7,418.2h-6.9c-1.5,0-2.7,1.2-2.7,2.7l0,0c0,1.5,1.2,2.7,2.7,2.7h6.9c1.5,0,2.7-1.2,2.7-2.7l0,0
		C82.3,419.4,81.1,418.2,79.7,418.2z"/>
	<path class="st5" d="M79.7,423.6h-6.9c-1.5,0-2.7,1.2-2.7,2.7l0,0c0,1.5,1.2,2.7,2.7,2.7h6.9c1.5,0,2.7-1.2,2.7-2.7l0,0
		C82.3,424.8,81.1,423.6,79.7,423.6z"/>
	<path class="st5" d="M45.2,398.3l5.3-0.7l-0.8-6.2l-5.3,0.7c-0.2-0.5-0.4-1-0.6-1.5l4.3-3l-3.6-5.1l-4.3,3
		c-0.4-0.4-0.8-0.8-1.3-1.1l2.5-4.7l-5.5-2.9l-2.5,4.7c-0.8-0.2-1.6-0.4-2.4-0.6v-5.7h-6.2v6c-0.6,0.1-1.2,0.3-1.7,0.5l-2.7-4.6
		l-5.4,3.2l2.7,4.6c-0.4,0.4-0.8,0.8-1.2,1.2l-4.5-2.8l-3.3,5.3l4.5,2.8c-0.2,0.5-0.4,1.1-0.5,1.6l-5.3-0.4l-0.5,6.2l5.3,0.4
		c0.1,0.6,0.2,1.1,0.3,1.6L7.6,403l2.4,5.7l4.9-2.1c0.3,0.5,0.6,0.9,1,1.3l-3.4,4.1l4.8,4l3.4-4.1c0.5,0.3,1,0.5,1.5,0.7l-1.1,5.2
		l6.1,1.3l1.1-5.2h0.4c0.4,0,0.9,0,1.3-0.1l1.4,5.1l6-1.6l-1.4-5.1c0.5-0.2,1-0.5,1.5-0.8l3.6,3.9l4.6-4.2l-3.6-3.9
		c0.3-0.4,0.6-0.9,0.9-1.4l5,1.8l2.1-5.9l-5-1.8C45.1,399.4,45.2,398.9,45.2,398.3z M28.7,406.2c-4.9,0-8.8-3.9-8.8-8.8
		s3.9-8.8,8.8-8.8s8.8,3.9,8.8,8.8S33.6,406.2,28.7,406.2L28.7,406.2z"/>
	<path class="st6" d="M37.5,397.4c0,4.9-4,8.8-8.8,8.8c-4.9,0-8.8-4-8.8-8.8c0-4.9,4-8.8,8.8-8.8C33.6,388.6,37.5,392.5,37.5,397.4
		L37.5,397.4z"/>
	<circle class="st5" cx="53.5" cy="502.1" r="2.6"/>
	<circle class="st5" cx="49.7" cy="433.1" r="2.6"/>
	<circle class="st5" cx="64.9" cy="368.2" r="2.6"/>
	<circle class="st5" cx="7.2" cy="322.7" r="2.6"/>
	<circle class="st5" cx="36.3" cy="448.7" r="2.6"/>
	<line class="st6" x1="51.1" y1="345.1" x2="21.4" y2="345.1"/>
	<line class="st6" x1="40.9" y1="336" x2="22.6" y2="336"/>
	<line class="st6" x1="20.5" y1="467" x2="11.5" y2="467"/>
	<line class="st6" x1="34.2" y1="486" x2="25.2" y2="486"/>
	<line class="st6" x1="13.4" y1="435.7" x2="4.4" y2="435.7"/>
	<line class="st6" x1="125.1" y1="480.7" x2="116.1" y2="480.7"/>
	<path class="st1" d="M436.5,471H460c1.2,0,2.1,0.9,2.1,2.1v18.7c0,1.2-0.9,2.1-2.1,2.1h-23.5c-1.2,0-2.1-0.9-2.1-2.1v-18.7
		C434.4,472,435.4,471,436.5,471z"/>
	<path class="st1" d="M536,465.2l-4.6,27.9c-0.4,2.6-3,4.5-6.1,4.5h-0.2v-32.3l3.6-0.2L536,465.2z"/>
	<path class="st1" d="M557.5,456.4c0,4.3-3.4,7.7-7.7,7.7v-15.4C554.1,448.7,557.5,452.2,557.5,456.4z"/>
	<path class="st18" d="M545.7,440v32.9c0-4.2-3.4-7.6-7.6-7.7c0,0,0,0-0.1,0h-13.7c-4.9,0-8.8-3.9-8.8-8.8s3.9-8.8,8.8-8.8H538
		C542.2,447.6,545.6,444.2,545.7,440L545.7,440z"/>
	<line class="st4" x1="529.7" y1="447.6" x2="529.7" y2="464.7"/>
	<path class="st4" d="M549.8,438v36.3c0,1.2-0.9,2.1-2.1,2.1c-1.2,0-2.1-0.9-2.1-2.1V438c0-1.2,0.9-2.1,2.1-2.1
		C548.9,435.9,549.8,436.8,549.8,438z"/>
	<line class="st6" x1="575.3" y1="434.2" x2="582" y2="429.1"/>
	<line class="st6" x1="559.5" y1="446.2" x2="569.3" y2="438.7"/>
	<line class="st6" x1="569.1" y1="448.7" x2="561.5" y2="452.5"/>
	<line class="st6" x1="586.7" y1="439.8" x2="575.7" y2="445.4"/>
	<line class="st6" x1="575.3" y1="478" x2="582" y2="483.1"/>
	<line class="st6" x1="559.5" y1="466" x2="569.3" y2="473.5"/>
	<line class="st6" x1="569.1" y1="463.4" x2="561.5" y2="459.6"/>
	<line class="st6" x1="586.7" y1="472.4" x2="575.7" y2="466.8"/>
	<line class="st6" x1="566.3" y1="456.1" x2="570.9" y2="456.1"/>
	<line class="st6" x1="575.7" y1="456.1" x2="585.3" y2="456.1"/>
	<line class="st6" x1="591.1" y1="456.2" x2="595" y2="456.2"/>
	<path class="st1" d="M661.1,495.7l5.3-9.8c1-1.9,1.4-4,1-6.1l0,0c-0.8-4.3-4.6-7.4-9-7.4H657c-4.4,0-8.1,3.1-9,7.4l0,0
		c-0.4,2.1-0.1,4.2,1,6.1l5.3,9.8H661.1z"/>
	<path class="st5" d="M465.9,435.5l3.2-0.4l-0.5-3.7l-3.2,0.4c-0.1-0.3-0.2-0.6-0.4-0.9l2.6-1.9l-2.2-3.1l-2.6,1.9
		c-0.2-0.2-0.5-0.5-0.8-0.7l1.5-2.9l-3.3-1.7l-1.5,2.9c-0.5-0.1-1-0.2-1.4-0.3v-3.5h-3.8v3.6c-0.4,0.1-0.7,0.2-1,0.3l-1.6-2.8
		l-3.2,1.9l1.6,2.8c-0.2,0.2-0.5,0.5-0.7,0.7l-2.7-1.7l-2,3.2l2.7,1.7c-0.1,0.3-0.2,0.7-0.3,1L443,432l-0.3,3.8l3.2,0.2
		c0,0.3,0.1,0.7,0.2,1l-3,1.2l1.5,3.5l3-1.2c0.2,0.3,0.4,0.5,0.6,0.8l-2,2.5l2.9,2.4l2-2.5c0.3,0.2,0.6,0.3,0.9,0.5l-0.7,3.1
		l3.7,0.8l0.7-3.1h0.2c0.3,0,0.5,0,0.8,0l0.9,3.1l3.6-1l-0.9-3.1c0.3-0.1,0.6-0.3,0.9-0.5l2.2,2.4l2.8-2.5L464,441
		c0.2-0.3,0.4-0.5,0.6-0.8l3,1.1l1.3-3.5l-3-1.1C465.8,436.1,465.8,435.8,465.9,435.5z M455.9,440.2c-2.9,0-5.3-2.4-5.3-5.3
		s2.4-5.3,5.3-5.3s5.3,2.4,5.3,5.3l0,0C461.2,437.8,458.8,440.2,455.9,440.2L455.9,440.2z"/>
	<circle class="st6" cx="455.9" cy="434.9" r="5.3"/>
	<path class="st5" d="M619.6,485l3.2-0.4l-0.5-3.7l-3.2,0.4c-0.1-0.3-0.2-0.6-0.4-0.9l2.6-1.9l-2.2-3.1l-2.6,1.9
		c-0.2-0.2-0.5-0.5-0.8-0.7l1.5-2.9l-3.3-1.7l-1.5,2.9c-0.5-0.1-1-0.2-1.4-0.3v-3.5h-3.8v3.6c-0.4,0.1-0.7,0.2-1,0.3l-1.7-2.8
		l-3.2,1.9l1.7,2.8c-0.2,0.2-0.5,0.5-0.7,0.7l-2.8-1.7l-2,3.2l2.7,1.7c-0.1,0.3-0.2,0.7-0.3,1l-3.2-0.2l-0.3,3.8l3.2,0.2
		c0,0.3,0.1,0.7,0.2,1l-3,1.2l1.5,3.5l3-1.2c0.2,0.3,0.4,0.5,0.6,0.8l-2,2.5l2.9,2.4l2-2.5c0.3,0.2,0.6,0.3,0.9,0.5l-0.7,3.1
		l3.7,0.8l0.7-3.1h0.2c0.3,0,0.5,0,0.8,0l0.8,3.1l3.6-1l-0.8-3.1c0.3-0.1,0.6-0.3,0.9-0.5l2.2,2.4l2.8-2.5l-2.2-2.4
		c0.2-0.3,0.4-0.5,0.6-0.8l3,1.1l1.3-3.5l-3-1.1C619.5,485.7,619.6,485.4,619.6,485z M609.6,489.8c-2.9,0-5.3-2.4-5.3-5.3
		s2.4-5.3,5.3-5.3c2.9,0,5.3,2.4,5.3,5.3C615,487.4,612.6,489.8,609.6,489.8L609.6,489.8L609.6,489.8z"/>
	<circle class="st6" cx="609.6" cy="484.5" r="5.3"/>
	<circle class="st5" cx="655.2" cy="483.1" r="2.3"/>
	<circle class="st5" cx="603.8" cy="442.6" r="2.3"/>
	<circle class="st5" cx="493.3" cy="456.1" r="2.3"/>
	<circle class="st5" cx="569.6" cy="495" r="2.3"/>
	<circle class="st5" cx="511.3" cy="479.2" r="2.3"/>
	<line class="st6" x1="643" y1="462.5" x2="616.5" y2="462.5"/>
	<line class="st6" x1="633.9" y1="454.4" x2="617.6" y2="454.4"/>
	<line class="st6" x1="472.4" y1="458.4" x2="464.4" y2="458.4"/>
	<line class="st6" x1="513" y1="437.9" x2="505" y2="437.9"/>
	<line class="st6" x1="554.5" y1="492.2" x2="546.4" y2="492.2"/>
	<path id="_2_copy_5-3" class="st19" d="M337.4,438.3c10.1,0,18.1,9.4,17.8,20.8l-0.3,12c-0.2,10.7-8.1,19.1-17.5,19.1
		s-17.3-8.5-17.5-19.1l-0.3-12C319.3,447.7,327.3,438.3,337.4,438.3z"/>
	<path id="_1_copy_4-3" class="st20" d="M355.5,460.7l-0.8,13.3c0,0-3.6,15.4-17.5,17.2l0,0H337l0,0c-13.9-1.8-17.5-17.2-17.5-17.2
		l-0.8-13.3c3.6,16.1,6.7,17,6.7,17c-0.6-4.9,4.4-4.4,4.4-4.4c2.4,0.4,4.9,0.7,7.4,0.8c2.5-0.1,4.9-0.4,7.4-0.8c0,0,5-0.5,4.4,4.4
		C348.9,477.8,351.9,476.8,355.5,460.7z M346.5,479.4c-0.2-2.9-2-2.6-2-2.6c-2.4,0.7-4.9,1.3-7.4,1.7l0,0c-2.5-0.4-4.9-0.9-7.3-1.6
		c0,0-1.7-0.2-1.9,2.6c0,0-0.7,2.8,1.6,4.1l2.9,3.1c0,0,2,0.6,1.9-1.8c0,0-0.2-1.8,1-2.1h1.8v0.1h1.8c1.2,0.3,1,2.1,1,2.1
		c-0.1,2.4,2,1.8,2,1.8l2.9-3.1C347.2,482.3,346.5,479.4,346.5,479.4L346.5,479.4z"/>
	<path id="Rounded_Rectangle_3" class="st2" d="M335.4,483.8h3.9c0.2,0,0.3,0.1,0.3,0.3c0,0.2-0.1,0.3-0.3,0.3l0,0h-3.9
		c-0.2,0-0.3-0.1-0.3-0.3S335.2,483.8,335.4,483.8z"/>
	<path id="_2" class="st2" d="M332,479.9l0.4-0.6c3.1,1.8,7,1.8,10.1,0l0.5,0.7C339.7,481.8,335.5,481.8,332,479.9L332,479.9z"/>
	<path id="Shape_11_copy-5" class="st21" d="M318.7,460.5c-0.2-0.1-0.4-0.2-0.6-0.3c-0.2-0.1-0.4-0.1-0.7-0.1h-0.2H317
		c-0.1,0-0.3,0-0.4,0.1c-0.7,0.2-1.3,0.7-1.6,1.5c-0.2,0.5-0.3,1.1-0.3,1.7c0,0.2,0,0.3,0,0.5s0,0.4,0,0.6c0,0.4,0.1,0.8,0.2,1.4
		c0,1.1,0.1,2.2,0.4,3.2c0.5,1.7,1.7,3.7,3.9,4.3C318.9,469,318.9,464.8,318.7,460.5L318.7,460.5z"/>
	<path id="Shape_3-5" class="st2" d="M318.9,460.7c0,0-3.8-1.2-3.7,2.8c0,0,0.6,5.7,0.8,6.2c0,0,1.5,3.3,4,3.5l0,0v1.1
		c-2.8-0.5-4.9-2.8-5.2-5.6l-0.7-4.6c0,0-0.5-6.1,4.5-4.5l0,0L318.9,460.7"/>
	<path id="Shape_4-5" class="st2" d="M317.7,468.6c-0.1,0.1-0.3,0.1-0.4,0.2c-0.1,0-0.3-0.1-0.4-0.2l-0.4-4c0,0,0.5-2,2.9-0.9
		l0.1,1.1c0,0-2-0.7-2,0.2C317.5,465.9,317.7,468.6,317.7,468.6z"/>
	<path id="Shape_11_copy-5_1_" class="st21" d="M356.3,460.7c-0.3,4.2-0.3,8.5-0.5,12.7c2.2-0.6,3.4-2.6,3.9-4.3
		c0.3-1,0.5-2.1,0.4-3.2c0.1-0.5,0.2-0.9,0.2-1.4c0-0.2,0-0.4,0-0.6s0-0.4,0-0.5c0-0.6-0.1-1.2-0.3-1.7c-0.3-0.7-0.8-1.2-1.6-1.5
		c-0.1,0-0.3-0.1-0.4-0.1h-0.2h-0.2c-0.2,0-0.5,0.1-0.7,0.1C356.7,460.5,356.5,460.5,356.3,460.7L356.3,460.7z"/>
	<path id="Shape_3-5_1_" class="st2" d="M356.1,460.8l0.2-1.1l0,0c5-1.5,4.5,4.5,4.5,4.5l-0.7,4.6c-0.3,2.8-2.4,5.1-5.2,5.6v-1.1
		l0,0c2.5-0.1,4-3.5,4-3.5c0.3-0.5,0.8-6.2,0.8-6.2C359.9,459.7,356.1,460.8,356.1,460.8"/>
	<path id="Shape_4-5_1_" class="st2" d="M357.6,465.2c0-0.9-2-0.2-2-0.2l0.1-1.1c2.3-1,2.9,0.9,2.9,0.9l-0.4,4
		c-0.1,0.1-0.3,0.1-0.4,0.2c-0.1,0-0.3-0.1-0.4-0.2C357.3,468.8,357.6,466.1,357.6,465.2z"/>
	<path id="new_vector_shape_done-5" class="st2" d="M338.9,468.3h0.3c0.5,1,0.9,2,1.1,3.1c0.1,0.4,0.1,0.8-0.1,1.1
		c-0.3,0.8-1.3,0.8-2.1,1.2c-0.2,0.1-0.4,0.3-0.7,0.3c-0.2-0.2-0.4-0.2-0.5-0.4c-0.2-0.3,0.1-0.5,0.3-0.6c0.4-0.2,1.6-0.4,1.8-0.8
		c0.2-0.2,0.1-0.8,0-1.1c-0.1-0.5-0.3-1-0.4-1.5c-0.1-0.3-0.4-0.7-0.2-1.1C338.6,468.4,338.7,468.4,338.9,468.3z"/>
	<path id="eye" class="st2" d="M328.4,461.4c0.9,0,1.6,0.7,1.6,1.6s-0.7,1.6-1.6,1.6s-1.6-0.7-1.6-1.6S327.5,461.4,328.4,461.4
		L328.4,461.4z"/>
	<path id="eye_1" class="st2" d="M346.5,461.4c0.9,0,1.6,0.7,1.6,1.6s-0.7,1.6-1.6,1.6s-1.6-0.7-1.6-1.6
		C344.8,462.1,345.6,461.4,346.5,461.4L346.5,461.4z"/>
	<path id="Ellipse_3-5" class="st10" d="M347.2,467.4c1.1,0,2,0.9,2,2s-0.9,2-2,2s-2-0.9-2-2l0,0
		C345.1,468.3,346.1,467.4,347.2,467.4z"/>
	<path id="Ellipse_3_copy-5" class="st10" d="M327.6,467.4c1.1,0,2,0.9,2,2s-0.9,2-2,2s-2-0.9-2-2l0,0
		C325.5,468.3,326.4,467.4,327.6,467.4z"/>
	<path id="Shape_1_copy_5" class="st2" d="M353.6,459.9v6c-0.2,2-1.7,3.7-3.8,3.9c-0.3,0-7.3,0-7.3,0c-3.1,0-3.7-3.7-3.7-3.7V462
		h-2.9v4.1c0,0-0.6,3.7-3.7,3.7c0,0-6.9,0-7.3,0c-2-0.2-3.6-1.9-3.8-3.9v-6h-2.6v-1.6h15.1c0,0,2.3,0.4,2.3,1.9h2.9
		c0-1.6,2.3-1.9,2.3-1.9h15.1v1.6L353.6,459.9L353.6,459.9z M334.3,460.8c0-0.6-0.7-0.7-0.7-0.7h-10.9v5.6c0,1.8,2.4,2.4,2.4,2.4
		h6.7c2.3,0,2.4-2.4,2.4-2.4L334.3,460.8z M352,460.1h-10.9c0,0-0.7,0.1-0.7,0.7v5c0,0,0.1,2.4,2.4,2.4h6.7c0,0,2.4-0.7,2.4-2.4
		L352,460.1z M349.7,469.9L349.7,469.9z M324.9,469.9L324.9,469.9z"/>
	<path id="Shape_6_copy_3" class="st2" d="M319.3,459.8c0,0,0.6-9.8,6.7-14.1c0,0,8.7,5.9,22.4,0c0,0,6.1,2.8,7,14.1h0.3
		c0,0,1.7-13-2.8-18.2c0,0-1.1-4-7-6.8l-2.1,1.3c-1.5-1.6-3.3-2.9-5.2-3.9c-1.7,0.8-3.1,1.9-4.2,3.4l-2.3-1.5
		c-2,0.9-3.7,2.3-5.1,4.1l-3.4,0.5l-1.8,3.2c0,0-4.2,3.4-2.9,17.5L319.3,459.8z"/>
	<path id="Shape_6_copy" class="st2" d="M356.3,459.8l-1.5-0.1c-1-11.3-6.5-13.4-6.5-13.4c-13.7,5.9-22.4-0.1-22.4-0.1
		c-5.3,4.5-6.1,13.6-6.1,13.6l-1.4-0.4c-1.3-14.1,2.9-17.8,2.9-17.8l1.9-3.6l3.6-0.5c1.4-1.8,3.2-3.2,5.3-4.2l2.1,1.4
		c1.1-1.5,2.7-2.6,4.4-3.2c1.9,1,3.7,2.3,5.2,3.8l2.2-1.2c5.9,2.9,7.5,7.4,7.5,7.4C358,446.7,356.3,459.8,356.3,459.8z M352.5,441.9
		c0,0-0.7-3.6-6.6-6.4l-2.2,1.3c-1.5-1.6-3.3-2.9-5.2-3.9c-1.6,0.9-2.9,2-4,3.5l-2.4-1.5c-1.9,0.9-3.5,2.3-4.8,4l-3.2,0.5l-1.7,3.1
		c0,0-3.5,2.7-3.2,13.6l0.1-0.1c0,0,1.1-6.8,6.6-11c0,0,9,6.1,22.6,0.2c0,0,5.1,2.4,6.8,10.9C355.4,456,356.4,447.2,352.5,441.9
		L352.5,441.9z"/>
	<path id="new_vector_shape_done_copy" class="st22" d="M337.6,435.9c0.1,0.1,0.1,0.2,0,0.3c-0.1,0.1-0.1,0.3-0.1,0.5
		s-0.1,0.5-0.1,0.8c0,0.2,0,0.4,0,0.6s0,0.2,0,0.4s0,0.1,0,0.1l0,0c0,0.1,0,0.1,0,0.2v0.2c0,0.1,0,0.2,0.1,0.3v0.1
		c0,0.1,0,0.1,0.1,0.2l0,0c0,0.1,0,0.2,0.1,0.3s0.1,0.3,0.1,0.5l0.1,0.3c0.1,0.2,0.1,0.4,0.2,0.5c0.1,0.2,0.1,0.2,0.2,0.3
		c0.1,0.3,0.3,0.6,0.5,0.9c0.1,0.1,0.1,0.2,0.2,0.3l0.1,0.2l0.1,0.1l0.1,0.2c0,0.1,0.1,0.1,0.1,0.2l0.1,0.2l0.3,0.4
		c0.1,0.1,0.2,0.2,0.3,0.4c0.1,0.1,0.4,0.5,0.6,0.7l0.2,0.2l0.1,0.1c0,0,0,0,0,0.1v0.1v0.1c0,0.1,0,0.1-0.1,0.2c0,0,0,0.1-0.1,0.1
		l-0.1,0.1c-0.1,0-0.1,0.1-0.2,0.1s-0.1,0-0.2-0.1s-0.2-0.2-0.3-0.3l-0.1-0.1c-0.1-0.1-0.2-0.2-0.3-0.3l-0.1-0.1
		c-0.1-0.1-0.2-0.2-0.2-0.3c-0.2-0.2-0.4-0.5-0.5-0.7l-0.1-0.2c-0.3-0.4-0.5-0.8-0.8-1.2c-0.1-0.1-0.1-0.2-0.2-0.3
		c-0.2-0.3-0.3-0.6-0.4-0.9v-0.1c-0.1-0.2-0.1-0.4-0.2-0.6s-0.1-0.4-0.2-0.6v-0.1l0,0v-0.1c0-0.1,0-0.2-0.1-0.3c0-0.1,0-0.2,0-0.3
		v-0.1c0-0.1,0-0.1,0-0.2s0-0.2,0-0.3s0-0.3,0-0.4s0-0.3,0-0.4c0-0.4,0.1-0.8,0.2-1.2c0-0.1,0.1-0.3,0.1-0.4c0-0.2,0.1-0.2,0.1-0.3
		v-0.1c0-0.1,0.1-0.1,0.1-0.2h0.1L337.6,435.9z M333.8,438.6c0.1,0.1,0.1,0.1,0.1,0.2s0,0.2,0,0.2v0.2v0.1v0.1v0.2v0.1
		c0,0,0.1,0.3,0.1,0.4s0.1,0.3,0.1,0.4c0.1,0.1,0.1,0.4,0.2,0.5c0.1,0.2,0.1,0.2,0.1,0.3c0,0.1,0.1,0.2,0.1,0.2
		c0.1,0.3,0.3,0.6,0.4,0.8c0.2,0.3,0.3,0.4,0.4,0.7c0,0.1,0.1,0.1,0.1,0.2l0.3,0.5c0.1,0.1,0.2,0.3,0.3,0.4l0.1,0.1
		c0.1,0.1,0.1,0.2,0.2,0.2c0.1,0.1,0.1,0.1,0.1,0.1c0.1,0.1,0.1,0.2,0.1,0.3c-0.1,0.2-0.2,0.3-0.3,0.3h-0.1c-0.1,0-0.1-0.1-0.1-0.1
		c-0.1-0.1-0.1-0.1-0.2-0.2c0-0.1-0.2-0.2-0.3-0.3c-0.1-0.1-0.4-0.5-0.5-0.7c-0.4-0.5-0.7-1.1-0.9-1.7c-0.1-0.2-0.2-0.5-0.3-0.8
		c0-0.1,0-0.2-0.1-0.3c0-0.1-0.1-0.2-0.1-0.4v-0.1v-0.1v-0.1v-0.1v-0.1V440c0-0.1,0-0.2,0-0.4c0-0.1,0-0.1,0-0.1s0-0.2,0-0.4
		c0-0.1,0-0.3,0-0.4s0-0.1,0-0.2s0-0.1,0-0.2v-0.1c0,0,0-0.1,0.1-0.1h0.1L333.8,438.6z M330.9,439.3c0.1,0.1,0.1,0.2,0.1,0.2
		c0,0.1,0,0.3,0,0.4s0,0.2,0,0.3v0.1c0,0.1,0,0.1,0,0.2l0,0v0.1v0.1c0,0.1,0,0.2,0.1,0.2c0.1,0.1,0.1,0.4,0.2,0.6
		c0.2,0.4,0.3,0.8,0.5,1.2c0.1,0.1,0.2,0.3,0.2,0.4s0.1,0.1,0.1,0.2s0.2,0.3,0.3,0.4c0.1,0.1,0.3,0.4,0.4,0.6
		c0.1,0.1,0.1,0.1,0.2,0.2s0.1,0.1,0.1,0.2s0.2,0.2,0.3,0.3l0.2,0.2c0.1,0.1,0.1,0.1,0.2,0.2l0,0c0.1,0.1,0.1,0.1,0.2,0.2l0.1,0.1
		c0.1,0.1,0.2,0.2,0.3,0.3l0.1,0.1l0,0l0.1,0.1l0,0c0.1,0.1,0.1,0.1,0.2,0.2l0,0c0.1,0.1,0.2,0.1,0.2,0.2l0.1,0.1l0.1,0.1
		c0,0.1,0.1,0.1,0.2,0.1s0.1,0.1,0.1,0.1l0.1,0.1l0.2,0.1l0.4,0.3c0.1,0,0.1,0.1,0.2,0.1v0.1c0,0.1,0,0.2,0,0.3v0.1
		c0,0.1,0,0.1-0.1,0.2l-0.1,0.1c-0.1,0-0.1,0-0.2,0h-0.1c-0.1,0-0.2-0.1-0.3-0.2h-0.1l-0.1-0.1l-0.1-0.1l-0.1-0.1l0,0l-0.1-0.1
		l-0.1-0.1c-0.1,0-0.1-0.1-0.2-0.1l-0.1-0.1l-0.1-0.1l-0.2-0.1l-0.1-0.1c0,0-0.1-0.1-0.2-0.1H334l-0.1-0.1h0.1l-0.1-0.1l0,0
		c-0.1-0.1-0.2-0.2-0.3-0.2l-0.1-0.1c-0.1-0.1-0.2-0.2-0.3-0.3l-0.1-0.1c-0.1-0.1-0.2-0.2-0.3-0.3l0,0l-0.1-0.1l-0.1-0.1
		c-0.1-0.2-0.3-0.3-0.4-0.5c-0.2-0.3-0.4-0.6-0.6-0.8c0-0.1-0.1-0.1-0.1-0.2s-0.1-0.2-0.2-0.4c-0.1-0.1-0.2-0.4-0.3-0.6
		s-0.1-0.3-0.2-0.4l-0.1-0.3c0-0.1-0.1-0.2-0.1-0.3c0-0.1-0.1-0.2-0.1-0.4s0-0.1,0-0.1c0-0.1,0-0.2-0.1-0.3c-0.1-0.5-0.1-1-0.1-1.5
		c0-0.1,0-0.2,0.1-0.3c0-0.1,0-0.1,0.1-0.2h0.1L330.9,439.3z"/>
</g>
</svg>
